Notes from a data witch - Data types in Arrow and R
…
Attaching package: 'arrow'

The following object is masked from 'package:utils':

    timestamp

Regarding magic

Consider this piece of magic. I have a csv file storing a data set. I import the data set into R using whatever my favourite csv reader function happens to be:

magicians <- read_csv_arrow("magicians.csv")
magicians

# A tibble: 65 × 6
   season episode title                                air_date   rating viewers
    <int>   <int> <chr>                                <date>      <dbl>   <dbl>
 1      1       1 Unauthorized Magic                   2015-12-16    0.2    0.92
 2      1       2 The Source of Magic                  2016-01-25    0.4    1.11
 3      1       3 Consequences of Advanced Spellcasti… 2016-02-01    0.4    0.9 
 4      1       4 The World in the Walls               2016-02-08    0.3    0.75
 5      1       5 Mendings, Major and Minor            2016-02-15    0.3    0.75
 6      1       6 Impractical Applications             2016-02-22    0.3    0.65
 7      1       7 The Mayakovsky Circumstance          2016-02-29    0.3    0.7 
 8      1       8 The Strangled Heart                  2016-03-07    0.3    0.67
 9      1       9 The Writing Room                     2016-03-14    0.3    0.71
10      1      10 Homecoming                           2016-03-21    0.3    0.78
# ℹ 55 more rows
…
A miniature translation guide. On the left a data frame in R is shown: it is comprised of three columns. Each columns is an R vector. We use the term ‘element’ to refer to any length-1 constituent of a vector, even though it isn’t really a distinct object in its own right. On the right is a Table in Arrow: it too is comprised of three columns, encoded as ChunkedArrays. Each ChunkedArray is comprised of one or more Arrays, and each Array contains one or more Scalars, which (unlike elements of R vectors) are distinct objects. The data structure that translates one into the other is called a Schema.

In this post I’m not going to talk much about the difference between Arrays and ChunkedArrays, or why Arrow organises Tables this way (that will be the topic of a later post). For now it’s enough to recognise that Arrow does have this additional structure: the Table data type in Arrow is not equivalent to the data frame class in R, so a little work is required to map one to the other.

A similar story applies when we look at the contents of the data set. The translation process doesn’t just apply to the “container” object (i.e., the data frame in R and the Table in Arrow), it also applies to the values that the object contains. If we look at the how the columns of magicians and arrowmagicks are labelled, we see evidence of this translation. The integer columns in R have been mapped to int32 columns in Arrow, Date columns in R become date32 columns in Arrow, and so on.

Variable names like arrowmagicks and function calls like arrow_table() are shown in monospace typewriter font

There’s quite a lot of complexity to the translation process, yet it all seems to work seamlessly, and it works both ways. I can pull the arrowmagicks data back into R and recover the original data:

collect(arrowmagicks)

# A tibble: 65 × 6
   season episode title                                air_date   rating viewers
    <int>   <int> <chr>                                <date>      <dbl>   <dbl>
 1      1       1 Unauthorized Magic                   2015-12-16    0.2    0.92
 2      1       2 The Source of Magic                  2016-01-25    0.4    1.11
 3      1       3 Consequences of Advanced Spellcasti… 2016-02-01    0.4    0.9 
 4      1       4 The World in the Walls               2016-02-08    0.3    0.75
 5      1       5 Mendings, Major and Minor            2016-02-15    0.3    0.75
 6      1       6 Impractical Applications             2016-02-22    0.3    0.65
 7      1       7 The Mayakovsky Circumstance          2016-02-29    0.3    0.7 
 8      1       8 The Strangled Heart                  2016-03-07    0.3    0.67
 9      1       9 The Writing Room                     2016-03-14    0.3    0.71
10      1      10 Homecoming                           2016-03-21    0.3    0.78
# ℹ 55 more rows
…
