Notes from a data witch - Shattered landscapes
…
Starting simple

Here’s a simple system constructed from these tools. It’s built using three functions. There’s a new_grid() function used to define a grid of x and y coordinates, a generate_simplex() function used to create spatial noise patterns on such a grid, and a render() function used to create an image. First, the new_grid() function:

new_grid <- function(n = 500) {
  ambient::long_grid(
    x = seq(0, 1, length.out = n),
    y = seq(0, 1, length.out = n)
  )
}

canvas <- new_grid()
canvas

# A tibble: 250,000 × 2
       x       y
   <dbl>   <dbl>
 1     0 0      
 2     0 0.00200
 3     0 0.00401
 4     0 0.00601
 5     0 0.00802
 6     0 0.0100 
 7     0 0.0120 
 8     0 0.0140 
 9     0 0.0160 
10     0 0.0180 
# … with 249,990 more rows
…
The particular choices I’ve made here came about from trial and error. I played around with a lot of different settings when creating generative art in this style, and these were things I liked. I’m not going to dive into the details here: you can find out more by reading the tutorial on spatial noise art I linked to earlier. For the current post, all I want to highlight is that we can use this function to add a new column to the canvas that defines our artwork:

canvas <- canvas |> dplyr::mutate(paint = generate_simplex(x, y)) 
canvas

# A tibble: 250,000 × 3
       x       y paint
   <dbl>   <dbl> <dbl>
 1     0 0       -3.96
 2     0 0.00200 -3.94
 3     0 0.00401 -3.92
 4     0 0.00601 -3.90
 5     0 0.00802 -3.88
 6     0 0.0100  -3.86
 7     0 0.0120  -3.83
 8     0 0.0140  -3.81
 9     0 0.0160  -3.79
10     0 0.0180  -3.77
# … with 249,990 more rows
…
