Notes from a data witch - Binding Apache Arrow to R
…
Penny Adiyodi in the Neitherlands, diving head first into a fountain that transports him to a new and magical world. I cannot stress enough that Penny does not, by and large, make good choices. Impulse control is a virtue, but not one that he possesses in abundance. Image via giphy, copyright syfy

Using “arrowplyr” bindings

I think I have some special fish magicks.
     – Josh Hoberman (The Magicians: Season 4, Episode 13)

When I wrote my Getting started with Apache Arrow post, I concluded with an illustration of how you can write dplyr code that will work smoothly in R even when the data themselves are stored in Arrow. Here’s a little recap of how that works, using a tiny data set I pulled from The Magicians Wikipedia page. Here’s what that data set looks like:

magicians <- read_csv_arrow("magicians.csv", as_data_frame = TRUE)
magicians

# A tibble: 65 × 6
   season episode title                                air_date   rating viewers
    <int>   <int> <chr>                                <date>      <dbl>   <dbl>
 1      1       1 Unauthorized Magic                   2015-12-16    0.2    0.92
 2      1       2 The Source of Magic                  2016-01-25    0.4    1.11
 3      1       3 Consequences of Advanced Spellcasti… 2016-02-01    0.4    0.9 
 4      1       4 The World in the Walls               2016-02-08    0.3    0.75
 5      1       5 Mendings, Major and Minor            2016-02-15    0.3    0.75
 6      1       6 Impractical Applications             2016-02-22    0.3    0.65
 7      1       7 The Mayakovsky Circumstance          2016-02-29    0.3    0.7 
 8      1       8 The Strangled Heart                  2016-03-07    0.3    0.67
 9      1       9 The Writing Room                     2016-03-14    0.3    0.71
10      1      10 Homecoming                           2016-03-21    0.3    0.78
# … with 55 more rows
…
The nice thing for R users is that all of this feels like regular R code. Under the hood libarrow is doing all the serious computation, but at the R level the user really doesn’t need to worry too much about that. The arrowplyr toolkit works seamlessly and invisibly.

In our ideal world, the arrowplyr interface is all you would ever need to use. Internally, the arrow package would intercept all the R function calls you make, and replace them with an equivalent function that performs exactly the same computation using libarrow. You the user would never need to think about what’s happening under the hood.

Real life, however, is filled with leaky abstractions, and arrowplyr is no exception. Because it’s a huge project that is under active development, there’s a lot of functionality being introduced. As an example, the current version of the package (v6.0.1) has limited support for tidyverse packages like lubridate and stringr. It’s awesome that this functionality is coming online, but because it’s happening so quickly there are gaps. The small contribution that I made today was to fill one of those gaps: currently, you can’t refer to the leap_year() function from lubridate in an arrowplyr pipeline. Well, technically you can, but whenever arrow encounters a function it doesn’t know how to execute in Arrow it throws a warning, pulls the data into R, and completes the query using native R code. Here’s what that looks like:

arrowmagicks %>% 
  mutate(
    year = year(air_date), 
    leap = leap_year(air_date)
  ) %>% 
  collect()

# A tibble: 65 × 8
   season episode title                    air_date   rating viewers  year leap 
    <int>   <int> <chr>                    <date>      <dbl>   <dbl> <int> <lgl>
 1      1       1 Unauthorized Magic       2015-12-16    0.2    0.92  2015 FALSE
 2      1       2 The Source of Magic      2016-01-25    0.4    1.11  2016 TRUE 
 3      1       3 Consequences of Advance… 2016-02-01    0.4    0.9   2016 TRUE 
 4      1       4 The World in the Walls   2016-02-08    0.3    0.75  2016 TRUE 
 5      1       5 Mendings, Major and Min… 2016-02-15    0.3    0.75  2016 TRUE 
 6      1       6 Impractical Applications 2016-02-22    0.3    0.65  2016 TRUE 
 7      1       7 The Mayakovsky Circumst… 2016-02-29    0.3    0.7   2016 TRUE 
 8      1       8 The Strangled Heart      2016-03-07    0.3    0.67  2016 TRUE 
 9      1       9 The Writing Room         2016-03-14    0.3    0.71  2016 TRUE 
10      1      10 Homecoming               2016-03-21    0.3    0.78  2016 TRUE 
# … with 55 more rows
…
The actual output continues for quite a while: there are currently 240 compute functions, most of which are low level functions needed to perform basic computational operations.

Let’s imagine you’re writing dplyr code to work with datetime data in a Table object like arrowmagicks. If you were working with native R data like magicians, you can do something like this:

start_date <- as.Date("2015-12-16")

magicians %>% 
  mutate(days = air_date - start_date)

# A tibble: 65 × 7
   season episode title                          air_date   rating viewers days 
    <int>   <int> <chr>                          <date>      <dbl>   <dbl> <drt>
 1      1       1 Unauthorized Magic             2015-12-16    0.2    0.92  0 d…
 2      1       2 The Source of Magic            2016-01-25    0.4    1.11 40 d…
 3      1       3 Consequences of Advanced Spel… 2016-02-01    0.4    0.9  47 d…
 4      1       4 The World in the Walls         2016-02-08    0.3    0.75 54 d…
 5      1       5 Mendings, Major and Minor      2016-02-15    0.3    0.75 61 d…
 6      1       6 Impractical Applications       2016-02-22    0.3    0.65 68 d…
 7      1       7 The Mayakovsky Circumstance    2016-02-29    0.3    0.7  75 d…
 8      1       8 The Strangled Heart            2016-03-07    0.3    0.67 82 d…
 9      1       9 The Writing Room               2016-03-14    0.3    0.71 89 d…
10      1      10 Homecoming                     2016-03-21    0.3    0.78 96 d…
# … with 55 more rows

Here I’ve created a new days column that counts the number of days that have elapsed between the air_date for an episode and the start_date (December 16th, 2015) when the first episode of Season 1 aired. There are a lot of data analysis situations in which you might want to do something like this, but right now you can’t actually do this using the arrow dplyr bindings because temporal arithmetic is a work in progress. In the not-too-distant future users should be able to expect code like this to work seamlessly, but right now it doesn’t. If you try it right now, you get this error:

Improving support for date/time calculations is one of the things I’m working on

arrowmagicks %>% 
  mutate(days = air_date - start_date) %>% 
  collect()

# A tibble: 65 × 7
   season episode title                          air_date   rating viewers days 
    <int>   <int> <chr>                          <date>      <dbl>   <dbl> <drt>
 1      1       1 Unauthorized Magic             2015-12-16    0.2    0.92     …
 2      1       2 The Source of Magic            2016-01-25    0.4    1.11 3456…
 3      1       3 Consequences of Advanced Spel… 2016-02-01    0.4    0.9  4060…
 4      1       4 The World in the Walls         2016-02-08    0.3    0.75 4665…
 5      1       5 Mendings, Major and Minor      2016-02-15    0.3    0.75 5270…
 6      1       6 Impractical Applications       2016-02-22    0.3    0.65 5875…
 7      1       7 The Mayakovsky Circumstance    2016-02-29    0.3    0.7  6480…
 8      1       8 The Strangled Heart            2016-03-07    0.3    0.67 7084…
 9      1       9 The Writing Room               2016-03-14    0.3    0.71 7689…
10      1      10 Homecoming                     2016-03-21    0.3    0.78 8294…
# … with 55 more rows

Right now, there are no general purpose arithmetic operations in arrow that allow you to subtract one date from another. However, because I chose this example rather carefully to find an edge case where the R package is missing some libarrow functionality, it turns out there is actually a days_between() function in libarrow that we could use to solve this problem, and it’s not too hard to use it. If you want to call one of the libarrow functions inside your dplyr pipeline, all you have to do is add an arrow_ prefix to the function name. For example, the C++ days_between() function becomes arrow_days_between() when called within the arrow dplyr pipeline:

arrowmagicks %>% 
  mutate(days = arrow_days_between(start_date, air_date)) %>% 
  collect()

# A tibble: 65 × 7
   season episode title                          air_date   rating viewers  days
    <int>   <int> <chr>                          <date>      <dbl>   <dbl> <int>
 1      1       1 Unauthorized Magic             2015-12-16    0.2    0.92     0
 2      1       2 The Source of Magic            2016-01-25    0.4    1.11    40
 3      1       3 Consequences of Advanced Spel… 2016-02-01    0.4    0.9     47
 4      1       4 The World in the Walls         2016-02-08    0.3    0.75    54
 5      1       5 Mendings, Major and Minor      2016-02-15    0.3    0.75    61
 6      1       6 Impractical Applications       2016-02-22    0.3    0.65    68
 7      1       7 The Mayakovsky Circumstance    2016-02-29    0.3    0.7     75
 8      1       8 The Strangled Heart            2016-03-07    0.3    0.67    82
 9      1       9 The Writing Room               2016-03-14    0.3    0.71    89
10      1      10 Homecoming                     2016-03-21    0.3    0.78    96
# … with 55 more rows
…
Before putting our functions into action, let’s see what happens when we try to write a simple data analysis pipeline without them:

arrowmagicks %>% 
  mutate(
    title = toupper(title),
    year = year(air_date), 
    leap = leap_year(air_date)
  ) %>% 
  collect()

# A tibble: 65 × 8
   season episode title                    air_date   rating viewers  year leap 
    <int>   <int> <chr>                    <date>      <dbl>   <dbl> <int> <lgl>
 1      1       1 UNAUTHORIZED MAGIC       2015-12-16    0.2    0.92  2015 FALSE
 2      1       2 THE SOURCE OF MAGIC      2016-01-25    0.4    1.11  2016 TRUE 
 3      1       3 CONSEQUENCES OF ADVANCE… 2016-02-01    0.4    0.9   2016 TRUE 
 4      1       4 THE WORLD IN THE WALLS   2016-02-08    0.3    0.75  2016 TRUE 
 5      1       5 MENDINGS, MAJOR AND MIN… 2016-02-15    0.3    0.75  2016 TRUE 
 6      1       6 IMPRACTICAL APPLICATIONS 2016-02-22    0.3    0.65  2016 TRUE 
 7      1       7 THE MAYAKOVSKY CIRCUMST… 2016-02-29    0.3    0.7   2016 TRUE 
 8      1       8 THE STRANGLED HEART      2016-03-07    0.3    0.67  2016 TRUE 
 9      1       9 THE WRITING ROOM         2016-03-14    0.3    0.71  2016 TRUE 
10      1      10 HOMECOMING               2016-03-21    0.3    0.78  2016 TRUE 
# … with 55 more rows

The internal arrow function that handles this is called “abandon_ship”. No, I don’t know why I felt the need to mention this`

Yes, it returns the correct answer, but only because arrow detected a function it doesn’t understand and has “abandoned ship”. It pulled the data into R and let dplyr do all the work. Now let’s see what happens when we use our functions instead:

arrowmagicks %>% 
  mutate(
    title = arrowish_toupper(title),
    year = year(air_date),
    leap = arrowish_leap_year(air_date)
  ) %>% 
  collect()

# A tibble: 65 × 8
   season episode title                    air_date   rating viewers  year leap 
    <int>   <int> <chr>                    <date>      <dbl>   <dbl> <int> <lgl>
 1      1       1 UNAUTHORIZED MAGIC       2015-12-16    0.2    0.92  2015 FALSE
 2      1       2 THE SOURCE OF MAGIC      2016-01-25    0.4    1.11  2016 TRUE 
 3      1       3 CONSEQUENCES OF ADVANCE… 2016-02-01    0.4    0.9   2016 TRUE 
 4      1       4 THE WORLD IN THE WALLS   2016-02-08    0.3    0.75  2016 TRUE 
 5      1       5 MENDINGS, MAJOR AND MIN… 2016-02-15    0.3    0.75  2016 TRUE 
 6      1       6 IMPRACTICAL APPLICATIONS 2016-02-22    0.3    0.65  2016 TRUE 
 7      1       7 THE MAYAKOVSKY CIRCUMST… 2016-02-29    0.3    0.7   2016 TRUE 
 8      1       8 THE STRANGLED HEART      2016-03-07    0.3    0.67  2016 TRUE 
 9      1       9 THE WRITING ROOM         2016-03-14    0.3    0.71  2016 TRUE 
10      1      10 HOMECOMING               2016-03-21    0.3    0.78  2016 TRUE 
# … with 55 more rows
…
