Notes from a data witch - Using Amazon S3 with R
…
At this point in the journey we’ve located the bucket, but we have no idea what it contains. To get a list of the bucket contents, the get_bucket_df() function from aws.s3 is our friend. The National Herbarium data set contains a lot of objects, so I’ll be “frugal” and restrict myself to merely downloading max = 20000 records:

herbarium_files <- get_bucket_df(
  bucket = "s3://herbariumnsw-pds/", 
  region = "ap-southeast-2", 
  max = 20000
) %>% 
  as_tibble()

Now that we’ve downloaded a list of the bucket contents, let’s have a look and see what we’ve got:

herbarium_files

# A tibble: 20,000 × 8
   Key                        LastM…¹ ETag  Size  Owner…² Owner…³ Stora…⁴ Bucket
   <chr>                      <chr>   <chr> <chr> <chr>   <chr>   <chr>   <chr> 
 1 ReadMe.txt                 2020-0… "\"5… 2729  97c09b… herbar… STANDA… herba…
 2 dwca-nsw_avh-v1.0.zip      2019-1… "\"2… 8231… 97c09b… herbar… STANDA… herba…
 3 herbariumnsw-pds/PublicDa… 2021-0… "\"3… 33    <NA>    <NA>    STANDA… herba…
 4 herbariumnsw-pds/PublicDa… 2021-0… "\"5… 433   <NA>    <NA>    STANDA… herba…
 5 herbariumnsw-pds/PublicDa… 2021-0… "\"5… 33    <NA>    <NA>    STANDA… herba…
 6 herbariumnsw-pds/PublicDa… 2021-0… "\"f… 433   <NA>    <NA>    STANDA… herba…
 7 herbariumnsw-pds/PublicDa… 2021-0… "\"b… 33    <NA>    <NA>    STANDA… herba…
 8 herbariumnsw-pds/PublicDa… 2021-0… "\"4… 433   <NA>    <NA>    STANDA… herba…
 9 herbariumnsw-pds/PublicDa… 2021-0… "\"f… 33    <NA>    <NA>    STANDA… herba…
10 herbariumnsw-pds/PublicDa… 2021-0… "\"6… 433   <NA>    <NA>    STANDA… herba…
# … with 19,990 more rows, and abbreviated variable names ¹​LastModified,
#   ²​Owner_ID, ³​Owner_DisplayName, ⁴​StorageClass
…
Rows: 725507 Columns: 74
── Column specification ────────────────────────────────────────────────────────
Delimiter: "\t"
chr  (38): id, type, institutionCode, collectionCode, basisOfRecord, occurre...
dbl   (7): minimumElevationInMeters, maximumElevationInMeters, minimumDepthI...
lgl  (28): lifeStage, associatedSequences, associatedTaxa, previousIdentific...
dttm  (1): modified

ℹ Use `spec()` to retrieve the full column specification for this data.
ℹ Specify the column types or set `show_col_types = FALSE` to quiet this message.

herbarium

# A tibble: 725,507 × 74
   id     type  modified            institutionCode collectionCode basisOfRecord
   <chr>  <chr> <dttm>              <chr>           <chr>          <chr>        
 1 NSW:N… Phys… 2013-11-28 11:56:00 NSW             NSW            PreservedSpe…
 2 NSW:N… Phys… 2012-08-09 15:47:00 NSW             NSW            PreservedSpe…
 3 NSW:N… Phys… 2015-03-13 15:51:00 NSW             NSW            PreservedSpe…
 4 NSW:N… Phys… 2018-07-24 10:06:00 NSW             NSW            PreservedSpe…
 5 NSW:N… Phys… 2015-03-13 15:51:00 NSW             NSW            PreservedSpe…
 6 NSW:N… Phys… 2013-07-24 15:16:00 NSW             NSW            PreservedSpe…
 7 NSW:N… Phys… 2015-03-13 15:51:00 NSW             NSW            PreservedSpe…
 8 NSW:N… Phys… 2010-12-01 14:25:00 NSW             NSW            PreservedSpe…
 9 NSW:N… Phys… 2018-01-24 16:49:00 NSW             NSW            PreservedSpe…
10 NSW:N… Phys… 2018-07-24 10:05:00 NSW             NSW            PreservedSpe…
# … with 725,497 more rows, and 68 more variables: occurrenceID <chr>,
#   catalogNumber <chr>, occurrenceRemarks <chr>, recordNumber <chr>,
#   recordedBy <chr>, lifeStage <lgl>, reproductiveCondition <chr>,
#   establishmentMeans <chr>, occurrenceStatus <chr>, preparations <chr>,
#   associatedSequences <lgl>, associatedTaxa <lgl>,
#   previousIdentifications <lgl>, eventDate <chr>, verbatimEventDate <chr>,
#   habitat <chr>, eventRemarks <lgl>, continent <lgl>, waterBody <lgl>, …
…
Okay that seems to work, so once again I’ll use purrr to iterate over all the tiny_images, uploading them one by one into my newly-created bucket:

tiny_images %>% 
  map_lgl(put_tiny_image)

 [1] TRUE TRUE TRUE TRUE TRUE TRUE TRUE TRUE TRUE TRUE TRUE TRUE TRUE TRUE TRUE
[16] TRUE TRUE TRUE TRUE TRUE TRUE TRUE TRUE

That looks pretty good! I’m seeing nothing but TRUE values in the output so it looks like I’ve successfully uploaded all the tiny images. Now that I’ve done this, I can try calling get_bucket_df() again to inspect the current contents of the bucket:

get_bucket_df("s3://tiny-herbs/") %>% 
  as_tibble()

# A tibble: 23 × 8
   Key            LastModified        ETag  Size  Owner…¹ Owner…² Stora…³ Bucket
   <chr>          <chr>               <chr> <chr> <chr>   <chr>   <chr>   <chr> 
 1 NSW1055313.jpg 2022-08-23T03:05:1… "\"c… 1494… b8b231… djnava… STANDA… tiny-…
 2 NSW121207.jpg  2022-04-22T09:08:0… "\"6… 1562… b8b231… djnava… STANDA… tiny-…
 3 NSW214616.jpg  2022-04-22T09:08:0… "\"f… 2041… b8b231… djnava… STANDA… tiny-…
 4 NSW29246.jpg   2022-04-22T09:08:0… "\"e… 1043… b8b231… djnava… STANDA… tiny-…
 5 NSW306564.jpg  2022-04-22T09:08:0… "\"d… 1819… b8b231… djnava… STANDA… tiny-…
 6 NSW307215.jpg  2022-04-22T09:08:0… "\"e… 1684… b8b231… djnava… STANDA… tiny-…
 7 NSW36860.jpg   2022-04-22T09:08:1… "\"f… 1962… b8b231… djnava… STANDA… tiny-…
 8 NSW389387.jpg  2022-04-22T09:08:1… "\"d… 1240… b8b231… djnava… STANDA… tiny-…
 9 NSW395530.jpg  2022-04-22T09:08:1… "\"3… 1435… b8b231… djnava… STANDA… tiny-…
10 NSW39618.jpg   2022-04-22T09:08:1… "\"a… 1028… b8b231… djnava… STANDA… tiny-…
# … with 13 more rows, and abbreviated variable names ¹​Owner_ID,
#   ²​Owner_DisplayName, ³​StorageClass
…
