Notes from a data witch - Getting started with Torsten
…
pk2cpt_data <- tibble::tibble(
    cmt = cmt,
    evid = evid,
    addl = addl,
    ss = ss,
    amt = amt, 
    time = time,
    rate = rate,
    ii = ii,
    dv = NA
)
pk2cpt_data$dv[iObs] <- cObs
pk2cpt_data

# A tibble: 54 × 9
     cmt  evid  addl    ss   amt  time  rate    ii    dv
   <dbl> <dbl> <dbl> <dbl> <dbl> <dbl> <dbl> <dbl> <dbl>
 1     1     1    14     0 80000 0         0    12   NA 
 2     2     0     0     0     0 0.083     0     0  359.
 3     2     0     0     0     0 0.167     0     0  663.
 4     2     0     0     0     0 0.25      0     0 1106.
 5     2     0     0     0     0 0.5       0     0 1185.
 6     2     0     0     0     0 0.75      0     0 1802.
 7     2     0     0     0     0 1         0     0 2296.
 8     2     0     0     0     0 1.5       0     0 2008.
 9     2     0     0     0     0 2         0     0 2001.
10     2     0     0     0     0 3         0     0 1115.
# ℹ 44 more rows
…
