Notes from a data witch - mrgsolve
…
Again, this is not technically a data frame, but it’s easily coercible to one, so if that’s what you want you can do this:14

tibble::as_tibble(out)

# A tibble: 4,802 × 5
      ID  time    EV  CENT    CP
   <dbl> <dbl> <dbl> <dbl> <dbl>
 1     1   0     0    0    0    
 2     1   0   100    0    0    
 3     1   0.1  90.5  9.49 0.475
 4     1   0.2  81.9 18.0  0.902
 5     1   0.3  74.1 25.7  1.29 
 6     1   0.4  67.0 32.6  1.63 
 7     1   0.5  60.7 38.8  1.94 
 8     1   0.6  54.9 44.4  2.22 
 9     1   0.7  49.7 49.4  2.47 
10     1   0.8  44.9 53.8  2.69 
# ℹ 4,792 more rows
…
