Notes from a data witch - An ODE by Stan
…
Chain 1 finished in 0.0 seconds.
Chain 2 finished in 0.0 seconds.
Chain 3 finished in 0.0 seconds.
Chain 4 finished in 0.0 seconds.

All 4 chains finished successfully.
Mean chain execution time: 0.0 seconds.
Total execution time: 0.5 seconds.

This is a CmdStanGQ object, and again it has $draws() and $summary() methods. For our purposes the $summary() method will suffice as it returns a tibble containing the thing I want to plot:

bolus2_summary <- bolus2_generated$summary()
bolus2_summary

# A tibble: 61 × 7
   variable   mean median    sd   mad    q5   q95
   <chr>     <num>  <num> <num> <num> <num> <num>
 1 c_fit[1]   9.97   9.99 0.804 0.684  8.64 11.3 
 2 c_fit[2]   8.98   9.01 0.648 0.560  7.88  9.97
 3 c_fit[3]   8.09   8.13 0.551 0.473  7.14  8.89
 4 c_fit[4]   7.29   7.34 0.500 0.404  6.46  7.99
 5 c_fit[5]   6.57   6.62 0.480 0.363  5.79  7.22
 6 c_fit[6]   5.93   5.98 0.478 0.345  5.14  6.55
 7 c_fit[7]   5.35   5.40 0.482 0.351  4.56  5.98
 8 c_fit[8]   4.83   4.88 0.488 0.361  4.01  5.48
 9 c_fit[9]   4.36   4.41 0.493 0.370  3.52  5.02
10 c_fit[10]  3.94   3.98 0.494 0.378  3.10  4.61
# ℹ 51 more rows

The variable column here is only mildly helpful, so I’ll add a column specifying the actual times associated with each row in this tibble:

bolus2_summary$time <- bolus2_data$t_fit
bolus2_summary

# A tibble: 61 × 8
   variable   mean median    sd   mad    q5   q95  time
   <chr>     <num>  <num> <num> <num> <num> <num> <num>
 1 c_fit[1]   9.97   9.99 0.804 0.684  8.64 11.3   0   
 2 c_fit[2]   8.98   9.01 0.648 0.560  7.88  9.97  0.05
 3 c_fit[3]   8.09   8.13 0.551 0.473  7.14  8.89  0.1 
 4 c_fit[4]   7.29   7.34 0.500 0.404  6.46  7.99  0.15
 5 c_fit[5]   6.57   6.62 0.480 0.363  5.79  7.22  0.2 
 6 c_fit[6]   5.93   5.98 0.478 0.345  5.14  6.55  0.25
 7 c_fit[7]   5.35   5.40 0.482 0.351  4.56  5.98  0.3 
 8 c_fit[8]   4.83   4.88 0.488 0.361  4.01  5.48  0.35
 9 c_fit[9]   4.36   4.41 0.493 0.370  3.52  5.02  0.4 
10 c_fit[10]  3.94   3.98 0.494 0.378  3.10  4.61  0.45
# ℹ 51 more rows
…
mmk_draws <- mmk_fitted$draws(format = "draws_df")
mmk_draws <- mmk_draws |>
  tidyr::pivot_longer(
    cols = tidyr::starts_with("conc"), 
    names_to = "variable", 
    values_to = "conc"
  ) |>
  dplyr::mutate(time = mmk_data$ts)

Warning: Dropping 'draws_df' class as required metadata was removed.

mmk_draws

# A tibble: 160 × 6
   .chain .iteration .draw variable    conc  time
    <int>      <int> <int> <chr>      <dbl> <dbl>
 1      1          1     1 conc[1,1]   21.5  0.05
 2      1          1     1 conc[2,1]   21.1  0.1 
 3      1          1     1 conc[3,1]   20.8  0.15
 4      1          1     1 conc[4,1]   20.5  0.2 
 5      1          1     1 conc[5,1]   20.1  0.25
 6      1          1     1 conc[6,1]   19.8  0.3 
 7      1          1     1 conc[7,1]   19.5  0.35
 8      1          1     1 conc[8,1]   19.1  0.4 
 9      1          1     1 conc[9,1]   18.8  0.45
10      1          1     1 conc[10,1]  18.5  0.5 
# ℹ 150 more rows
…
All 4 chains finished successfully.
Mean chain execution time: 1.9 seconds.
Total execution time: 4.1 seconds.

Warning: 2 of 4000 (0.0%) transitions ended with a divergence.
See https://mc-stan.org/misc/warnings for details.

That looks nice. A couple of minor complaints from Stan about divergences, but nothing too serious.18 And take a summary:

mmk_bolus_fitted$summary()

# A tibble: 168 × 10
   variable     mean median    sd   mad     q5   q95  rhat ess_bulk ess_tail
   <chr>       <num>  <num> <num> <num>  <num> <num> <num>    <num>    <num>
 1 lp__        3.82   4.20  1.73  1.49   0.506  5.86  1.00    1091.    1561.
 2 sigma       0.717  0.673 0.247 0.216  0.416  1.18  1.00    1109.    1491.
 3 v0          6.10   5.89  1.03  0.864  4.80   8.06  1.00     814.    1252.
 4 km          3.80   2.79  3.34  2.19   0.586 10.6   1.00     906.    1442.
 5 vol_d_true  5.67   5.69  0.350 0.329  5.08   6.22  1.00     924.    1398.
 6 c0[1]      21.2   21.1   1.34  1.21  19.3   23.6   1.00     924.    1398.
 7 vm          7.27   6.69  2.16  1.47   5.00  11.5   1.00     817.    1207.
 8 c_fit[1,1] 20.9   20.8   1.30  1.17  19.0   23.2   1.00     934.    1413.
 9 c_fit[2,1] 20.6   20.5   1.25  1.13  18.8   22.8   1.00     946.    1418.
10 c_fit[3,1] 20.3   20.2   1.21  1.10  18.5   22.5   1.00     958.    1423.
# ℹ 158 more rows
…
