Notes from a data witch - Four ways to write assertion checks in R
…
library(dplyr)
library(readr)
library(assertr)

The assertr package provides three primary verbs, verify(), assert(), and insist(). They all take a data set as the first argument and (by default) returns the original data set unaltered if the checks pass, which makes it include them as part of a data pipeline. There’s also two row-wise variants assert_rows() and insist_rows(). For the purposes of this post I’ll limit myself to talking about the simplest cases, verify() and assert().

Let’s start with verify(). The verify() function expects to receive an expression as the first non-data argument amd yields a logical value, which is then evaluated in the data context. If the expression evaluates to FALSE, an error is thrown.

Here’s a simple example using verify(). My data set comes from the List of Archibald Prize Winners wikipedia page. The Archibald Prize is a one of the most prestigious art prizes in Australia, awarded for painted portraits, and has been awarded (almost!) annually since 1921. My data set looks like this:

archibald <- read_csv("archibald.csv", show_col_types = FALSE)
archibald

# A tibble: 166 × 6
   prize           year  artist            title         subject n_finalists
   <chr>           <chr> <chr>             <chr>         <chr>         <dbl>
 1 Archibald Prize 1921  William McInnes   Desbrowe Ann… Harold…          45
 2 Archibald Prize 1922  William McInnes   Professor Ha… Willia…          53
 3 Archibald Prize 1923  William McInnes   Portrait of … Violet…          50
 4 Archibald Prize 1924  William McInnes   Miss Collins  Gladys…          40
 5 Archibald Prize 1925  John Longstaff    Maurice Mosc… Mauric…          74
 6 Archibald Prize 1926  William McInnes   Silk and Lac… Esther…          58
 7 Archibald Prize 1927  George W. Lambert Mrs Annie Mu… Annie …          56
 8 Archibald Prize 1928  John Longstaff    Dr Alexander… Alexan…          66
 9 Archibald Prize 1929  John Longstaff    The Hon W A … Willia…          75
10 Archibald Prize 1930  William McInnes   Drum-Major H… Harry …          67
# ℹ 156 more rows
…
archibald |> 
  count(artist, prize) |>
  arrange(desc(n))

However, I might want to verify() a few things first. I’d like to check that prize and artist both exist as columns in the data, and both contain character data. I can use the base R function exists() to check that the variables exist within the data context, and is.character() to check the variable type:

archibald |> 
  verify(exists("prize")) |>
  verify(exists("artist")) |>
  verify(is.character("prize")) |>
  verify(is.character("artist")) |>
  count(artist, prize) |>
  arrange(desc(n))

# A tibble: 118 × 3
   artist            prize                     n
   <chr>             <chr>                 <int>
 1 William Dargie    Archibald Prize           8
 2 William McInnes   Archibald Prize           7
 3 Ivor Hele         Archibald Prize           5
 4 John Longstaff    Archibald Prize           5
 5 Vincent Fantauzzo People's Choice Award     4
 6 Clifton Pugh      Archibald Prize           3
 7 Eric Smith        Archibald Prize           3
 8 Robert Hannaford  People's Choice Award     3
 9 William Dobell    Archibald Prize           3
10 William Pidgeon   Archibald Prize           3
# ℹ 108 more rows
…
Error: assertr stopped execution

There is no painter variable in the data set, so the assertion checks fail, and an error message is thrown. The form of the error message is rather elaborate though. There is a reason why assertr defaults to this strange-looking format: often there are multiple errors that appear in an assertion check, and by default assertr will group them into a table summarising all the issues.

There’s something a little repetitive about the validation code I wrote above. If my analysis pipeline involved many variables, it would be a bit obnoxious to write a separate verify() line to check that they all exist. For the column name checks, assertr provides a convenience function has_all_names() that you can use specifically for this purpose:3

archibald |> 
  verify(has_all_names("prize", "artist")) |>
  verify(is.character("prize")) |>
  verify(is.character("artist")) |>
  count(artist, prize) |>
  arrange(desc(n))

# A tibble: 118 × 3
   artist            prize                     n
   <chr>             <chr>                 <int>
 1 William Dargie    Archibald Prize           8
 2 William McInnes   Archibald Prize           7
 3 Ivor Hele         Archibald Prize           5
 4 John Longstaff    Archibald Prize           5
 5 Vincent Fantauzzo People's Choice Award     4
 6 Clifton Pugh      Archibald Prize           3
 7 Eric Smith        Archibald Prize           3
 8 Robert Hannaford  People's Choice Award     3
 9 William Dobell    Archibald Prize           3
10 William Pidgeon   Archibald Prize           3
# ℹ 108 more rows

For the type checking, however, there’s no equivalent convenience function and if you want to group multiple verify() checks what you want to do is use the assert() function. The first non-data argument to assert() specifies a predicate function that is applied to a set of columns.4 If the predicate function returns FALSE, the assert() function errors.

Rewriting the verify() code from our “successful” example as assert() checks gives us this:

archibald |> 
  verify(has_all_names("prize", "artist")) |>
  assert(is.character, prize, artist) |>
  count(artist, prize) |>
  arrange(desc(n))

# A tibble: 118 × 3
   artist            prize                     n
   <chr>             <chr>                 <int>
 1 William Dargie    Archibald Prize           8
 2 William McInnes   Archibald Prize           7
 3 Ivor Hele         Archibald Prize           5
 4 John Longstaff    Archibald Prize           5
 5 Vincent Fantauzzo People's Choice Award     4
 6 Clifton Pugh      Archibald Prize           3
 7 Eric Smith        Archibald Prize           3
 8 Robert Hannaford  People's Choice Award     3
 9 William Dobell    Archibald Prize           3
10 William Pidgeon   Archibald Prize           3
# ℹ 108 more rows
…
