Notes from a data witch - Building a population pharmacokinetic model with Stan
…
The only catch, from my perspective, is that the tutorial uses the NONMEM pharmacometrics software, and I don’t have access to NONMEM. So as a fun little exercise, I’m going to translate some of the code from the workshop from NONMEM to Stan (and R).

The warfarin data set

The data set used in the tutorial is based on some old studies in the 1960s on the pharmacokinetics of warfarin, an anticoagulant medication that is probably well-known to most people (I mean, even I know what warfarin is). The data is provided as a csv file called “warfpk.csv”, so my first step will be to import the data into R so that I can work with it.

Parsing the data

Reading the data into R using readr::read_csv() turns out to be mostly straightforward. Data are delimited with commas and there’s very little weirdness to deal with. The only thing that is non-standard for an R user is that the data file uses "." to specify missing values (which I’m guessing is standard in pharmacometrics), so I’ll need to state that explicitly when reading the data into R to ensure that numeric variables with missing values are correctly parsed as numeric:

warfpk <- readr::read_csv("warfpk.csv", na = ".", show_col_types = FALSE)
warfpk

# A tibble: 289 × 10
   `#ID`  time    wt   age   sex   amt  rate  dvid    dv   mdv
   <chr> <dbl> <dbl> <dbl> <dbl> <dbl> <dbl> <dbl> <dbl> <dbl>
 1 0       0    66.7    50     1   100    -2     0  NA       1
 2 0       0.5  66.7    50     1    NA    NA     1   0       0
 3 0       1    66.7    50     1    NA    NA     1   1.9     0
 4 0       2    66.7    50     1    NA    NA     1   3.3     0
 5 0       3    66.7    50     1    NA    NA     1   6.6     0
 6 0       6    66.7    50     1    NA    NA     1   9.1     0
 7 0       9    66.7    50     1    NA    NA     1  10.8     0
 8 0      12    66.7    50     1    NA    NA     1   8.6     0
 9 0      24    66.7    50     1    NA    NA     1   5.6     0
10 0      36    66.7    50     1    NA    NA     1   4       0
# ℹ 279 more rows

These column names are pretty standard in the field, in part because standard software like NONMEM expects these names. They’re perfectly fine for R too, with one minor exception: I’m going to rename the id variable using dplyr::rename():

warfpk <- warfpk |> dplyr::rename(id = `#ID`)
warfpk

# A tibble: 289 × 10
   id     time    wt   age   sex   amt  rate  dvid    dv   mdv
   <chr> <dbl> <dbl> <dbl> <dbl> <dbl> <dbl> <dbl> <dbl> <dbl>
 1 0       0    66.7    50     1   100    -2     0  NA       1
 2 0       0.5  66.7    50     1    NA    NA     1   0       0
 3 0       1    66.7    50     1    NA    NA     1   1.9     0
 4 0       2    66.7    50     1    NA    NA     1   3.3     0
 5 0       3    66.7    50     1    NA    NA     1   6.6     0
 6 0       6    66.7    50     1    NA    NA     1   9.1     0
 7 0       9    66.7    50     1    NA    NA     1  10.8     0
 8 0      12    66.7    50     1    NA    NA     1   8.6     0
 9 0      24    66.7    50     1    NA    NA     1   5.6     0
10 0      36    66.7    50     1    NA    NA     1   4       0
# ℹ 279 more rows
…
My first thought upon seeing this was that it must be a typo in the data file. No problem, it’s easy enough to remove the # character and convert the id variable to numeric:

warfpk <- warfpk |> 
  dplyr::mutate(
    id = id |> 
      stringr::str_remove_all("#") |> 
      as.numeric()
  )
warfpk

# A tibble: 289 × 10
      id  time    wt   age   sex   amt  rate  dvid    dv   mdv
   <dbl> <dbl> <dbl> <dbl> <dbl> <dbl> <dbl> <dbl> <dbl> <dbl>
 1     0   0    66.7    50     1   100    -2     0  NA       1
 2     0   0.5  66.7    50     1    NA    NA     1   0       0
 3     0   1    66.7    50     1    NA    NA     1   1.9     0
 4     0   2    66.7    50     1    NA    NA     1   3.3     0
 5     0   3    66.7    50     1    NA    NA     1   6.6     0
 6     0   6    66.7    50     1    NA    NA     1   9.1     0
 7     0   9    66.7    50     1    NA    NA     1  10.8     0
 8     0  12    66.7    50     1    NA    NA     1   8.6     0
 9     0  24    66.7    50     1    NA    NA     1   5.6     0
10     0  36    66.7    50     1    NA    NA     1   4       0
# ℹ 279 more rows
…
amt: Dose administered to this person at this time point (in milligrams)

rate: Uncertain what this refers to, but it has value -2 when drug is administered and missing otherwise

dvid: Appears to be a dummy variable indicating whether the dependent variable was measured at this time point (0 = false, 1 = true)

dv: Measured value of the dependent variable (plasma warfarin concentration, in mg/L)

mdv: Appears to be a dummy variable that is the reverse of dvid, and is presumably an indicator variable whose meaning is “missing dependent variable” (0 = false, 1 = true)

One peculiarity of the data structure that appears to be quite standard in pharmacokinetics is that the data frame incorporates both measurement events where the drug concentration is measured, and dosing events where a dose of the drug is administered. It’s a perfectly sensible way to organise the data, but later on it will be convenient to separate them in order to pass the data to Stan in a format that it expects. To get a sense of what the dosing events look like, we can extract the relevant subset of the data frame by filtering the data on dvid:

warfpk |> dplyr::filter(dvid == 0)

# A tibble: 32 × 10
      id  time    wt   age   sex   amt  rate  dvid    dv   mdv
   <dbl> <dbl> <dbl> <dbl> <dbl> <dbl> <dbl> <dbl> <dbl> <dbl>
 1     0     0  66.7    50     1   100    -2     0    NA     1
 2     1     0  66.7    50     1   100    -2     0    NA     1
 3     2     0  66.7    31     1   100    -2     0    NA     1
 4     3     0  80      40     1   120    -2     0    NA     1
 5     4     0  40      46     0    60    -2     0    NA     1
 6     5     0  75.3    43     1   113    -2     0    NA     1
 7     6     0  60      36     0    90    -2     0    NA     1
 8     7     0  90      41     1   135    -2     0    NA     1
 9     8     0  50      27     0    75    -2     0    NA     1
10     9     0  70      28     1   105    -2     0    NA     1
# ℹ 22 more rows
…
The fact that all the R-hat values are very close to 1 suggests that my MCMC chains are behaving themselves nicely, and all four chains are giving the same answers. But just to check – and because an earlier version of this model misbehaved quite badly and these plots turned out to be very helpful for diagnosing the problem – I’ll plot the marginal distributions over all the population level parameters (and the log-probability) separately for each chain. To do that, first I’ll extract the relevant columns from the model1_draws.csv file that contains all the raw samples:

draws <- out_draws |>
  dplyr::select(tidyselect::matches("(theta|sigma|omega|lp|chain)")) 

draws

# A tibble: 4,000 × 9
    lp__ theta_KA theta_CL theta_V omega_KA omega_CL omega_V sigma .chain
   <dbl>    <dbl>    <dbl>   <dbl>    <dbl>    <dbl>   <dbl> <dbl>  <dbl>
 1 -130.     1.15    0.135    8.56     1.81    0.317   0.235  1.15      1
 2 -143.     1.36    0.139    6.88     1.95    0.435   0.225  1.13      1
 3 -138.     1.86    0.134    7.18     1.90    0.312   0.204  1.06      1
 4 -137.     1.55    0.144    7.95     1.46    0.324   0.306  1.11      1
 5 -130.     1.60    0.138    8.08     1.84    0.290   0.240  1.08      1
 6 -132.     1.94    0.146    7.33     1.57    0.290   0.234  1.06      1
 7 -140.     1.45    0.143    7.71     1.99    0.260   0.165  1.20      1
 8 -132.     1.52    0.142    7.46     1.24    0.325   0.313  1.13      1
 9 -134.     1.57    0.144    7.57     1.82    0.261   0.174  1.09      1
10 -133.     1.57    0.143    7.56     1.81    0.265   0.177  1.09      1
# ℹ 3,990 more rows
…
fit

# A tibble: 251 × 7
   obs_num    yh    q5   q95     y  time    id
     <dbl> <dbl> <dbl> <dbl> <dbl> <dbl> <dbl>
 1       1  1.44  1.16  1.77   0     0.5     0
 2       2  2.68  2.19  3.24   1.9   1       0
 3       3  4.69  3.95  5.50   3.3   2       0
 4       4  6.19  5.33  7.07   6.6   3       0
 5       5  8.61  7.75  9.47   9.1   6       0
 6       6  9.28  8.41 10.2   10.8   9       0
 7       7  9.14  8.21 10.1    8.6  12       0
 8       8  6.67  5.80  7.58   5.6  24       0
 9       9  4.48  3.52  5.42   4    36       0
10      10  2.99  2.01  3.99   2.7  48       0
# ℹ 241 more rows
…
prd

# A tibble: 2,496 × 7
   variable       yh    q5   q95    id obs_num  time
   <chr>       <dbl> <dbl> <dbl> <dbl>   <dbl> <dbl>
 1 c_fit[1,1]  0.303 0.241 0.378     0       1   0.1
 2 c_fit[1,2]  0.599 0.478 0.743     0       2   0.2
 3 c_fit[1,3]  0.885 0.709 1.10      0       3   0.3
 4 c_fit[1,4]  1.16  0.936 1.44      0       4   0.4
 5 c_fit[1,5]  1.44  1.16  1.77      0       5   0.5
 6 c_fit[1,6]  1.70  1.37  2.08      0       6   0.6
 7 c_fit[1,7]  1.96  1.59  2.39      0       7   0.7
 8 c_fit[1,8]  2.20  1.79  2.68      0       8   0.8
 9 c_fit[1,9]  2.45  2.00  2.96      0       9   0.9
10 c_fit[1,10] 2.68  2.19  3.24      0      10   1  
# ℹ 2,486 more rows
…
