Notes from a data witch - Four ways to be assertive
…
Summary: Because it provides a huge number of well-named assertion functions, the assertive package tends to produce very readable code, and because each of those functions produces errors that are tailored to that check, the error messages tend to be useful too. It does get a little awkward when there isn’t an assertion for your use case, but usually there’s a way to work around that.

Just assertr, Carr

The assertr package solves a different problem to the other three methods discussed here. The other three approaches are general-purpose tools and – with various strengths and weaknesses – they’re deisgned to be used when checking an arbitrary input. The assertr package is more specialised: it focuses on checking a data input, specifically a tabular data onject like a data frame or a tibble. Because it’s focused on that particular – and extremely important – special case, it’s able to provide a more powerful way of validating the content of a data frame.

In that sense, assertr is complementary to the other three approaches. For example, you could use assertr to check the data input to a function that takes a data frame as the primary argument, but then use (say) assert_that() to test the others.

Let’s start with some data:

archibald <- readr::read_csv("archibald.csv", show_col_types = FALSE)
archibald

# A tibble: 166 × 6
   prize           year  artist            title         subject n_finalists
   <chr>           <chr> <chr>             <chr>         <chr>         <dbl>
 1 Archibald Prize 1921  William McInnes   Desbrowe Ann… Harold…          45
 2 Archibald Prize 1922  William McInnes   Professor Ha… Willia…          53
 3 Archibald Prize 1923  William McInnes   Portrait of … Violet…          50
 4 Archibald Prize 1924  William McInnes   Miss Collins  Gladys…          40
 5 Archibald Prize 1925  John Longstaff    Maurice Mosc… Mauric…          74
 6 Archibald Prize 1926  William McInnes   Silk and Lac… Esther…          58
 7 Archibald Prize 1927  George W. Lambert Mrs Annie Mu… Annie …          56
 8 Archibald Prize 1928  John Longstaff    Dr Alexander… Alexan…          66
 9 Archibald Prize 1929  John Longstaff    The Hon W A … Willia…          75
10 Archibald Prize 1930  William McInnes   Drum-Major H… Harry …          67
# ℹ 156 more rows
Load packages:

library(dplyr)
library(ggplot2)
library(assertr)

Here’s an example where the validation checks pass and the analysis goes forward:

archibald |> 
  verify(has_all_names("prize", "artist")) |>
  assert(is.character, "prize", "artist") |>
  count(artist, prize) |>
  arrange(desc(n))

# A tibble: 118 × 3
   artist            prize                     n
   <chr>             <chr>                 <int>
 1 William Dargie    Archibald Prize           8
 2 William McInnes   Archibald Prize           7
 3 Ivor Hele         Archibald Prize           5
 4 John Longstaff    Archibald Prize           5
 5 Vincent Fantauzzo People's Choice Award     4
 6 Clifton Pugh      Archibald Prize           3
 7 Eric Smith        Archibald Prize           3
 8 Robert Hannaford  People's Choice Award     3
 9 William Dobell    Archibald Prize           3
10 William Pidgeon   Archibald Prize           3
# ℹ 108 more rows
…
