Notes from a data witch - Pins and needles
…
The pin_write() function allows you to supply more information and metadata than this, but – again – I’m not going to bother with all that here. The main thing for my purposes is that pin_write() has indeed written some files to disk:

fs::dir_ls("~/Dropbox/Pins", recurse = TRUE)

/home/danielle/Dropbox/Pins/mpg
/home/danielle/Dropbox/Pins/mpg/20230613T004154Z-26aa0
/home/danielle/Dropbox/Pins/mpg/20230613T004154Z-26aa0/data.txt
/home/danielle/Dropbox/Pins/mpg/20230613T004154Z-26aa0/mpg.csv

Okay that’s easy enough. The next step is to check if I can read the data back to R. That’s very easy to do with pin_read(). When I pass the board (board_dropbox) and the name of the pin ("mpg") to this function, it returns the data:

pin_read(board_dropbox, "mpg") |> tibble::as_tibble()

# A tibble: 234 × 11
   manufacturer model  displ  year   cyl trans drv     cty   hwy fl    class
   <chr>        <chr>  <dbl> <int> <int> <chr> <chr> <int> <int> <chr> <chr>
 1 audi         a4       1.8  1999     4 auto… f        18    29 p     comp…
 2 audi         a4       1.8  1999     4 manu… f        21    29 p     comp…
 3 audi         a4       2    2008     4 manu… f        20    31 p     comp…
 4 audi         a4       2    2008     4 auto… f        21    30 p     comp…
 5 audi         a4       2.8  1999     6 auto… f        16    26 p     comp…
 6 audi         a4       2.8  1999     6 manu… f        18    26 p     comp…
 7 audi         a4       3.1  2008     6 auto… f        18    27 p     comp…
 8 audi         a4 qu…   1.8  1999     4 manu… 4        18    26 p     comp…
 9 audi         a4 qu…   1.8  1999     4 auto… 4        16    25 p     comp…
10 audi         a4 qu…   2    2008     4 manu… 4        20    28 p     comp…
# ℹ 224 more rows
…
# A tibble: 4 × 6
  name           type  title        created             file_size meta      
  <chr>          <chr> <chr>        <dttm>              <fs::byt> <list>    
1 diamonds       csv   diamonds: a… 2023-06-12 17:34:05     2.64M <pins_met>
2 warfpk_data    csv   warfpk_data… 2023-06-11 00:25:54     8.01K <pins_met>
3 warfpk_draws   csv   warfpk_draw… 2023-06-11 00:22:02   281.39M <pins_met>
4 warfpk_summary csv   warfpk_summ… 2023-06-10 18:36:35     1.15M <pins_met>

Cool. Now that we know what pins are available, we can read the data stored in the “diamonds” pin directly into R by calling pin_read():

pin_read(read_only_board, "diamonds") |>
  tibble::as_tibble()

# A tibble: 53,940 × 10
   carat cut       color clarity depth table price     x     y     z
   <dbl> <chr>     <chr> <chr>   <dbl> <dbl> <int> <dbl> <dbl> <dbl>
 1  0.23 Ideal     E     SI2      61.5    55   326  3.95  3.98  2.43
 2  0.21 Premium   E     SI1      59.8    61   326  3.89  3.84  2.31
 3  0.23 Good      E     VS1      56.9    65   327  4.05  4.07  2.31
 4  0.29 Premium   I     VS2      62.4    58   334  4.2   4.23  2.63
 5  0.31 Good      J     SI2      63.3    58   335  4.34  4.35  2.75
 6  0.24 Very Good J     VVS2     62.8    57   336  3.94  3.96  2.48
 7  0.24 Very Good I     VVS1     62.3    57   336  3.95  3.98  2.47
 8  0.26 Very Good H     SI1      61.9    55   337  4.07  4.11  2.53
 9  0.22 Fair      E     VS2      65.1    61   337  3.87  3.78  2.49
10  0.23 Very Good H     VS1      59.4    61   338  4     4.05  2.39
# ℹ 53,930 more rows
…
