Notes from a data witch - Splatter
…
Here’s what it looks like when we call it:

base <- create_base_image(
  seed = 789,
  rows = 100,
  cols = 100,
  iterations = 400000,
  span = 5
)
base

# A tibble: 10,000 × 3
     row   col value
   <dbl> <dbl> <dbl>
 1     0  0    0.850
 2     0  1.01 0.822
 3     0  2.02 0.882
 4     0  3.03 0.887
 5     0  4.04 0.879
 6     0  5.05 0.893
 7     0  6.06 0.872
 8     0  7.07 0.901
 9     0  8.08 0.894
10     0  9.09 0.898
# ℹ 9,990 more rows
…
flow <- create_curl_image(
  data = base,
  seed = 100,
  iterations = 99,
  scale = .0002,
  octaves = 5
)
flow

# A tibble: 1,000,000 × 8
     row   col value x_coord y_coord iteration z_coord strength
   <dbl> <dbl> <dbl>   <dbl>   <dbl>     <dbl>   <dbl>    <dbl>
 1     0  0    0.850  0            0         1       1    0.990
 2     0  1.01 0.822  0.0101       0         1       1    0.990
 3     0  2.02 0.882  0.0202       0         1       1    0.990
 4     0  3.03 0.887  0.0303       0         1       1    0.990
 5     0  4.04 0.879  0.0404       0         1       1    0.990
 6     0  5.05 0.893  0.0505       0         1       1    0.990
 7     0  6.06 0.872  0.0606       0         1       1    0.990
 8     0  7.07 0.901  0.0707       0         1       1    0.990
 9     0  8.08 0.894  0.0808       0         1       1    0.990
10     0  9.09 0.898  0.0909       0         1       1    0.990
# ℹ 999,990 more rows
…
