…
### Parsing the data

Reading the data into R using `readr::read_csv()` turns out to be mostly straightforward. Data are delimited with commas and there's very little weirdness to deal with. The only thing that is non-standard for an R user is that the data file uses `"."` to specify missing values (which I'm guessing is standard in pharmacometrics), so I'll need to state that explicitly when reading the data into R to ensure that numeric variables with missing values are correctly parsed as numeric:


::: {.cell}

```{.r .cell-code}
warfpk <- readr::read_csv("warfpk.csv", na = ".", show_col_types = FALSE)
warfpk
```

::: {.cell-output .cell-output-stdout}
```
# A tibble: 289 × 10
   `#ID`  time    wt   age   sex   amt  rate  dvid    dv   mdv
   <chr> <dbl> <dbl> <dbl> <dbl> <dbl> <dbl> <dbl> <dbl> <dbl>
 1 0       0    66.7    50     1   100    -2     0  NA       1
 2 0       0.5  66.7    50     1    NA    NA     1   0       0
 3 0       1    66.7    50     1    NA    NA     1   1.9     0
 4 0       2    66.7    50     1    NA    NA     1   3.3     0
 5 0       3    66.7    50     1    NA    NA     1   6.6     0
 6 0       6    66.7    50     1    NA    NA     1   9.1     0
 7 0       9    66.7    50     1    NA    NA     1  10.8     0
 8 0      12    66.7    50     1    NA    NA     1   8.6     0
 9 0      24    66.7    50     1    NA    NA     1   5.6     0
10 0      36    66.7    50     1    NA    NA     1   4       0
# ℹ 279 more rows
```
…
These column names are pretty standard in the field, in part because standard software like NONMEM expects these names. They're perfectly fine for R too, with one minor exception: I'm going to rename the id variable using `dplyr::rename()`:


::: {.cell}

```{.r .cell-code}
warfpk <- warfpk |> dplyr::rename(id = `#ID`)
warfpk
```

::: {.cell-output .cell-output-stdout}
```
# A tibble: 289 × 10
   id     time    wt   age   sex   amt  rate  dvid    dv   mdv
   <chr> <dbl> <dbl> <dbl> <dbl> <dbl> <dbl> <dbl> <dbl> <dbl>
 1 0       0    66.7    50     1   100    -2     0  NA       1
 2 0       0.5  66.7    50     1    NA    NA     1   0       0
 3 0       1    66.7    50     1    NA    NA     1   1.9     0
 4 0       2    66.7    50     1    NA    NA     1   3.3     0
 5 0       3    66.7    50     1    NA    NA     1   6.6     0
 6 0       6    66.7    50     1    NA    NA     1   9.1     0
 7 0       9    66.7    50     1    NA    NA     1  10.8     0
 8 0      12    66.7    50     1    NA    NA     1   8.6     0
 9 0      24    66.7    50     1    NA    NA     1   5.6     0
10 0      36    66.7    50     1    NA    NA     1   4       0
# ℹ 279 more rows
```
…
::: {.cell}

```{.r .cell-code}
warfpk <- warfpk |> 
  dplyr::mutate(
    id = id |> 
      stringr::str_remove_all("#") |> 
      as.numeric()
  )
warfpk
```

::: {.cell-output .cell-output-stdout}
```
# A tibble: 289 × 10
      id  time    wt   age   sex   amt  rate  dvid    dv   mdv
   <dbl> <dbl> <dbl> <dbl> <dbl> <dbl> <dbl> <dbl> <dbl> <dbl>
 1     0   0    66.7    50     1   100    -2     0  NA       1
 2     0   0.5  66.7    50     1    NA    NA     1   0       0
 3     0   1    66.7    50     1    NA    NA     1   1.9     0
 4     0   2    66.7    50     1    NA    NA     1   3.3     0
 5     0   3    66.7    50     1    NA    NA     1   6.6     0
 6     0   6    66.7    50     1    NA    NA     1   9.1     0
 7     0   9    66.7    50     1    NA    NA     1  10.8     0
 8     0  12    66.7    50     1    NA    NA     1   8.6     0
 9     0  24    66.7    50     1    NA    NA     1   5.6     0
10     0  36    66.7    50     1    NA    NA     1   4       0
# ℹ 279 more rows
```
…
One peculiarity of the data structure that appears to be quite standard in pharmacokinetics is that the data frame incorporates both **measurement events** where the drug concentration is measure, and **dosing events** where a dose of the drug is provided. It's a perfectly sensible way to organised the data, but later on it will be convenient to separate them in order to pass the data to Stan in a format that it expects. To get a sense of what the dosing events look like, we can extract the relevant subset of the data frame by filtering the data on `dvid`:


::: {.cell}

```{.r .cell-code}
warfpk |> dplyr::filter(dvid == 0)
```

::: {.cell-output .cell-output-stdout}
```
# A tibble: 32 × 10
      id  time    wt   age   sex   amt  rate  dvid    dv   mdv
   <dbl> <dbl> <dbl> <dbl> <dbl> <dbl> <dbl> <dbl> <dbl> <dbl>
 1     0     0  66.7    50     1   100    -2     0    NA     1
 2     1     0  66.7    50     1   100    -2     0    NA     1
 3     2     0  66.7    31     1   100    -2     0    NA     1
 4     3     0  80      40     1   120    -2     0    NA     1
 5     4     0  40      46     0    60    -2     0    NA     1
 6     5     0  75.3    43     1   113    -2     0    NA     1
 7     6     0  60      36     0    90    -2     0    NA     1
 8     7     0  90      41     1   135    -2     0    NA     1
 9     8     0  50      27     0    75    -2     0    NA     1
10     9     0  70      28     1   105    -2     0    NA     1
# ℹ 22 more rows
```
…
The fact that all the R-hat values are very close to 1 suggests that my MCMC chains are behaving themselves nicely, and all four chains are giving the same answers. But just to check -- and because an earlier version of this model misbehaved quite badly and these plots turned out to be very helpful for diagnosing the problem -- I'll plot the marginal distributions over all the population level parameters (and the log-probability) separately for each chain. To do that, first I'll extract the relevant columns from the `model1_draws.csv` file that contains all the raw samples:


::: {.cell}

```{.r .cell-code}
draws <- readr::read_csv("model1_draws.csv", show_col_types = FALSE) |>
  dplyr::select(tidyselect::matches("(theta|sigma|omega|lp|chain)")) 

draws
```

::: {.cell-output .cell-output-stdout}
```
# A tibble: 4,000 × 9
     lp__ theta_KA theta_CL theta_V omega_KA omega_CL omega_V sigma .chain
    <dbl>    <dbl>    <dbl>   <dbl>    <dbl>    <dbl>   <dbl> <dbl>  <dbl>
 1  -98.2    0.660    0.124    8.03    0.836    0.301   0.221 1.08       1
 2  -98.2    0.442    0.132    7.89    1.16     0.249   0.225 1.00       1
 3 -105.     0.376    0.142    7.94    1.17     0.366   0.230 1.07       1
 4 -113.     0.620    0.150    7.57    1.11     0.342   0.243 1.12       1
 5 -111.     0.700    0.150    7.47    1.22     0.316   0.209 0.993      1
 6 -107.     0.831    0.152    7.62    1.21     0.345   0.251 1.02       1
 7 -130.     0.741    0.152    7.69    1.38     0.312   0.288 0.988      1
 8 -127.     0.750    0.157    7.36    1.24     0.272   0.280 1.21       1
 9 -128.     0.733    0.151    7.36    1.26     0.239   0.267 1.20       1
10 -104.     0.522    0.136    7.75    0.691    0.335   0.263 1.03       1
# ℹ 3,990 more rows
```
…
fit
```

::: {.cell-output .cell-output-stdout}
```
# A tibble: 251 × 7
   obs_num    yh    q5   q95     y  time    id
     <dbl> <dbl> <dbl> <dbl> <dbl> <dbl> <dbl>
 1       1  1.44  1.15  1.75   0     0.5     0
 2       2  2.69  2.18  3.23   1.9   1       0
 3       3  4.70  3.93  5.52   3.3   2       0
 4       4  6.20  5.30  7.11   6.6   3       0
 5       5  8.62  7.73  9.50   9.1   6       0
 6       6  9.28  8.36 10.2   10.8   9       0
 7       7  9.14  8.16 10.1    8.6  12       0
 8       8  6.67  5.79  7.58   5.6  24       0
 9       9  4.49  3.53  5.43   4    36       0
10      10  3.01  2.04  4.00   2.7  48       0
# ℹ 241 more rows
```
…
prd
```

::: {.cell-output .cell-output-stdout}
```
# A tibble: 2,496 × 7
   variable       yh    q5   q95    id obs_num  time
   <chr>       <dbl> <dbl> <dbl> <dbl>   <dbl> <dbl>
 1 c_fit[1,1]  0.304 0.240 0.376     0       1   0.1
 2 c_fit[1,2]  0.600 0.476 0.738     0       2   0.2
 3 c_fit[1,3]  0.887 0.706 1.09      0       3   0.3
 4 c_fit[1,4]  1.17  0.932 1.43      0       4   0.4
 5 c_fit[1,5]  1.44  1.15  1.75      0       5   0.5
 6 c_fit[1,6]  1.70  1.37  2.07      0       6   0.6
 7 c_fit[1,7]  1.96  1.58  2.37      0       7   0.7
 8 c_fit[1,8]  2.21  1.78  2.67      0       8   0.8
 9 c_fit[1,9]  2.45  1.99  2.95      0       9   0.9
10 c_fit[1,10] 2.69  2.18  3.23      0      10   1  
# ℹ 2,486 more rows
```
…
