Notes from a data witch - Art, jasmines, and the water colours
…
The last step is to tidy up the values. After pivot_longer() does its job, the x variable contains strings like "x1", "x2", etc, but we’d prefer them to be actual numbers like 1, 2, etc. The same is true for the y variable. To fix this, the last part of the code does a tiny bit of string manipulation using str_remove_all() to get rid of the unwanted prefixes, and then coerces the result to a number.

The names_prefix argument to pivot_longer() can transform x without the third step, but I prefer the verbose form. I find it easier to read and it treats x and y the same

Taken together, the import_image(), construct_matrix(), and construct_tibble() functions provide us with everything we need to pull the data from the image file and wrangle it into a format that ggplot2 is expecting:

jas <- file %>% 
  import_image(width = 100, height = 60) %>% 
  construct_matrix() %>% 
  construct_tibble()

jas

# A tibble: 6,000 × 4
       y     x shade        id
   <dbl> <dbl> <chr>     <int>
 1     1     1 #838c70ff     1
 2    10     1 #3c3123ff     2
 3    11     1 #503d3dff     3
 4    12     1 #363126ff     4
 5    13     1 #443a30ff     5
 6    14     1 #8a6860ff     6
 7    15     1 #665859ff     7
 8    16     1 #5a5d51ff     8
 9    17     1 #535c4cff     9
10    18     1 #944b61ff    10
# ℹ 5,990 more rows
…
Here’s what that looks like applied to the jas data:

jas <- extract_channels(jas)
jas

# A tibble: 6,000 × 10
       y     x shade        id   red   grn   blu    hue   sat   val
   <dbl> <dbl> <chr>     <int> <int> <int> <int>  <dbl> <dbl> <dbl>
 1     1     1 #838c70ff     1   131   140   112 0.220  0.200 0.549
 2    10     1 #3c3123ff     2    60    49    35 0.0933 0.417 0.235
 3    11     1 #503d3dff     3    80    61    61 0      0.237 0.314
 4    12     1 #363126ff     4    54    49    38 0.115  0.296 0.212
 5    13     1 #443a30ff     5    68    58    48 0.0833 0.294 0.267
 6    14     1 #8a6860ff     6   138   104    96 0.0317 0.304 0.541
 7    15     1 #665859ff     7   102    88    89 0.988  0.137 0.4  
 8    16     1 #5a5d51ff     8    90    93    81 0.208  0.129 0.365
 9    17     1 #535c4cff     9    83    92    76 0.260  0.174 0.361
10    18     1 #944b61ff    10   148    75    97 0.950  0.493 0.580
# ℹ 5,990 more rows
…
We can now take the pixels from the jasmines image and make them “flow” across the image. To do this, we’ll need to reintroduce the colour information. We can do this using full_join() from the dplyr package. I’ve written a small convenience function restore_points() that performs the join only after removing the original x and y coordinates from the jas data. The reason for this is that the pts data now contains the positional information we need, so we want the x and y values from that data set. That’s easy enough: we drop those coordinates with select() and then join the two tables using only the id column. See? I promised it would be useful!

restore_points <- function(jas, pts) {
  jas %>% 
    select(-x, -y) %>% 
    full_join(pts, by = "id") %>% 
    arrange(time, id) 
}

The result is a tibble that looks like this:

jas <- restore_points(jas, pts)
jas

# A tibble: 126,000 × 11
   shade        id   red   grn   blu    hue   sat   val     x     y  time
   <chr>     <int> <int> <int> <int>  <dbl> <dbl> <dbl> <dbl> <dbl> <dbl>
 1 #838c70ff     1   131   140   112 0.220  0.200 0.549     1     1     0
 2 #3c3123ff     2    60    49    35 0.0933 0.417 0.235     1    10     0
 3 #503d3dff     3    80    61    61 0      0.237 0.314     1    11     0
 4 #363126ff     4    54    49    38 0.115  0.296 0.212     1    12     0
 5 #443a30ff     5    68    58    48 0.0833 0.294 0.267     1    13     0
 6 #8a6860ff     6   138   104    96 0.0317 0.304 0.541     1    14     0
 7 #665859ff     7   102    88    89 0.988  0.137 0.4       1    15     0
 8 #5a5d51ff     8    90    93    81 0.208  0.129 0.365     1    16     0
 9 #535c4cff     9    83    92    76 0.260  0.174 0.361     1    17     0
10 #944b61ff    10   148    75    97 0.950  0.493 0.580     1    18     0
# ℹ 125,990 more rows
…
pts <- jas %>% 
  extract_points() %>% 
  iterate(
    time = 40, 
    step = .2, 
    octaves = 10, 
    frequency = .05
  )

jas <- jas %>%
  restore_points(pts)

jas

# A tibble: 984,000 × 11
   shade        id   red   grn   blu    hue    sat   val     x     y  time
   <chr>     <int> <int> <int> <int>  <dbl>  <dbl> <dbl> <dbl> <dbl> <dbl>
 1 #9c8178ff     1   156   129   120 0.0417 0.231  0.612     1     1     0
 2 #81b564ff     2   129   181   100 0.274  0.448  0.710     1    10     0
 3 #8b7870ff     3   139   120   112 0.0494 0.194  0.545     1   100     0
 4 #eedfdbff     4   238   223   219 0.0351 0.0798 0.933     1   101     0
 5 #c29aa3ff     5   194   154   163 0.962  0.206  0.761     1   102     0
 6 #d5e1c3ff     6   213   225   195 0.233  0.133  0.882     1   103     0
 7 #bde8beff     7   189   232   190 0.337  0.185  0.910     1   104     0
 8 #b3dfbcff     8   179   223   188 0.367  0.197  0.875     1   105     0
 9 #b2dcbdff     9   178   220   189 0.377  0.191  0.863     1   106     0
10 #b3d9bfff    10   179   217   191 0.386  0.175  0.851     1   107     0
# ℹ 983,990 more rows
…
