Notes from a data witch - Passing Arrow data between R and Python with reticulate
…
The code looks more R-like, but Python is doing the work.8

Copying data frames between languages

Okay, now that we understand the basics of reticulate, it’s time to tackle the problem of transferring data sets between R and Python. For now, let’s leave Arrow out of this. All we’re going to do is take an ordinary R data frame and transfer it to Python.

First, let’s load some data into R. Sticking to the reptilian theme we’ve got going here, the data are taken from The Reptile Database (accessed August 31 2022), an open and freely available catalog of reptile species and their scientific classifications.9

[R code]

taxa <- read_csv2("taxa.csv")
taxa

# A tibble: 14,930 × 10
   taxon_id family subfa…¹ genus subge…² speci…³ autho…⁴ infra…⁵ infra…⁶ infra…⁷
   <chr>    <chr>  <chr>   <chr> <lgl>   <chr>   <chr>   <chr>   <chr>   <chr>  
 1 Ablepha… Scinc… Eugong… Able… NA      alaicus ELPATJ… <NA>    <NA>    <NA>   
 2 Ablepha… Scinc… Eugong… Able… NA      alaicus ELPATJ… subsp.  alaicus ELPATJ…
 3 Ablepha… Scinc… Eugong… Able… NA      alaicus ELPATJ… subsp.  kucenk… NIKOLS…
 4 Ablepha… Scinc… Eugong… Able… NA      alaicus ELPATJ… subsp.  yakovl… (EREMC…
 5 Ablepha… Scinc… Eugong… Able… NA      anatol… SCHMID… <NA>    <NA>    <NA>   
 6 Ablepha… Scinc… Eugong… Able… NA      bivitt… (MENET… <NA>    <NA>    <NA>   
 7 Ablepha… Scinc… Eugong… Able… NA      budaki  GÖCMEN… <NA>    <NA>    <NA>   
 8 Ablepha… Scinc… Eugong… Able… NA      cherno… DAREVS… <NA>    <NA>    <NA>   
 9 Ablepha… Scinc… Eugong… Able… NA      cherno… DAREVS… subsp.  cherno… DAREVS…
10 Ablepha… Scinc… Eugong… Able… NA      cherno… DAREVS… subsp.  eiselti SCHMID…
# … with 14,920 more rows, and abbreviated variable names ¹​subfamily,
#   ²​subgenus, ³​specific_epithet, ⁴​authority, ⁵​infraspecific_marker,
#   ⁶​infraspecific_epithet, ⁷​infraspecific_authority
…
