Notes from a data witch - Arrays and tables in Arrow
…
Buy you never close the door

  – What Kind Of Man, Florence + The Machine

So what about datasets? They’re the last item on that table, and you might be wondering where they fall in all this. I’m not going to dive into the details on datasets in this post, because they’re a whole separate topic and they deserve their own blog post. However, it’s a little unsatisfying to write all this and not say anything about them, so I’ll give a very quick overview here.

Up to this point I’ve talked about tabular data sets that are contained entirely in memory. When such data are written to disk, they are typically written to a single file. For larger-than-memory data sets, a different strategy is needed. Only a subset of the data can be stored in memory at any point in time, and as a consequence it becomes convenient to write the data to disk by partitioning it into many smaller files. This functionality is supported in Arrow via Datasets.

I’ll give a simple example here, using a small data set. Let’s suppose I’ve downloaded the entire Florence + The Machine discography using the spotifyr package:

florence <- get_discography("florence + the machine")
florence

# A tibble: 414 × 41
# Groups:   album_name [18]
   artist_name   artis…¹ album…² album…³ album…⁴ album…⁵ album…⁶ album…⁷ dance…⁸
   <chr>         <chr>   <chr>   <chr>   <list>  <chr>     <dbl> <chr>     <dbl>
 1 Florence + T… 1moxjb… 0uGwPm… album   <df>    2022-0…    2022 day       0.73 
 2 Florence + T… 1moxjb… 0uGwPm… album   <df>    2022-0…    2022 day       0.467
 3 Florence + T… 1moxjb… 0uGwPm… album   <df>    2022-0…    2022 day       0.635
 4 Florence + T… 1moxjb… 0uGwPm… album   <df>    2022-0…    2022 day       0.346
 5 Florence + T… 1moxjb… 0uGwPm… album   <df>    2022-0…    2022 day       0.599
 6 Florence + T… 1moxjb… 0uGwPm… album   <df>    2022-0…    2022 day       0.565
 7 Florence + T… 1moxjb… 0uGwPm… album   <df>    2022-0…    2022 day       0.472
 8 Florence + T… 1moxjb… 0uGwPm… album   <df>    2022-0…    2022 day       0.571
 9 Florence + T… 1moxjb… 0uGwPm… album   <df>    2022-0…    2022 day       0.542
10 Florence + T… 1moxjb… 0uGwPm… album   <df>    2022-0…    2022 day       0.643
# … with 404 more rows, 32 more variables: energy <dbl>, key <int>,
#   loudness <dbl>, mode <int>, speechiness <dbl>, acousticness <dbl>,
#   instrumentalness <dbl>, liveness <dbl>, valence <dbl>, tempo <dbl>,
#   track_id <chr>, analysis_url <chr>, time_signature <int>, artists <list>,
#   available_markets <list>, disc_number <int>, duration_ms <int>,
#   explicit <lgl>, track_href <chr>, is_local <lgl>, track_name <chr>,
#   track_preview_url <lgl>, track_number <int>, type <chr>, track_uri <chr>, …
…
