Notes from a data witch - Creating new generative art tools in R with grid, ambient, and S7
…
Creating art programmatically

Recall earlier, back when I was talking about constructors, how I said that the primary reason for writing my custom constructor functions was user convenience, so that stylistic properties could be passed to circle() etc as “top level” arguments rather than being bundled within a call to style()? Well, that was true as far as it goes, but the convenience factor is a little bit more substantial than saving myself some keystrokes. By creating an API that exposes the stylistic and structural parameters as top level arguments, I can create a data frame that describes all the desired features of a sketch, like this:

set.seed(1)
values <- tibble::tibble(
  color  = sample(palette, size = 100L, replace = TRUE),
  fill   = color,
  x      = sample(1:6, size = 100L, replace = TRUE),
  y      = sample(1:6, size = 100L, replace = TRUE),
  radius = runif(100L, min = .1, max = .5)
)
values

# A tibble: 100 × 5
   color   fill        x     y radius
   <chr>   <chr>   <int> <int>  <dbl>
 1 #e50000 #e50000     3     5  0.162
 2 #028121 #028121     2     5  0.239
 3 #e50000 #e50000     2     1  0.364
 4 #ff8d00 #ff8d00     5     5  0.225
 5 #004cff #004cff     2     4  0.241
 6 #ffee00 #ffee00     5     2  0.159
 7 #770088 #770088     4     6  0.364
 8 #ff8d00 #ff8d00     5     2  0.174
 9 #ffee00 #ffee00     4     1  0.482
10 #ffee00 #ffee00     6     5  0.459
# ℹ 90 more rows
…
