Notes from a data witch - Extracting tables from pdf files with tabulizer
…
Unable to display PDF file. Download instead.

We can use this data file as a way to check that the package works and does what we expect. The workhorse function in the package is extract_tables(). We pass it the path to the pdf file as the first argument, and use the various other arguments to provide details about how the file should be processed. In this case, the only other argument I’ll specify is output = "data.frame", which tells the extract_tables() function to return a list of data frames rather than a list of matrices (the default behaviour). Let’s see if it’s working:

pdf_tables <- pdf_data |> 
  extract_tables(output = "data.frame") |>
  map(as_tibble)

pdf_tables

[[1]]
# A tibble: 31 × 10
     mpg   cyl  disp    hp  drat    wt  qsec    vs    am  gear
   <dbl> <int> <dbl> <int> <dbl> <dbl> <dbl> <int> <int> <int>
 1  21       6  160    110  3.9   2.62  16.5     0     1     4
 2  21       6  160    110  3.9   2.88  17.0     0     1     4
 3  22.8     4  108     93  3.85  2.32  18.6     1     1     4
 4  21.4     6  258    110  3.08  3.22  19.4     1     0     3
 5  18.7     8  360    175  3.15  3.44  17.0     0     0     3
 6  18.1     6  225    105  2.76  3.46  20.2     1     0     3
 7  14.3     8  360    245  3.21  3.57  15.8     0     0     3
 8  24.4     4  147.    62  3.69  3.19  20       1     0     4
 9  22.8     4  141.    95  3.92  3.15  22.9     1     0     4
10  19.2     6  168.   123  3.92  3.44  18.3     1     0     4
# ℹ 21 more rows
…
