Notes from a data witch - Shattered landscapes
…
Starting simple

I’ll start by building a simple system that doesn’t go very far beyond what I covered in the Art From Code workshop. It’s built using three functions. There’s a new_grid() function used to define a grid of x and y coordinates, a generate_simplex() function used to create spatial noise patterns on such a grid, and a render() function used to create an image. First, the new_grid() function:

new_grid <- function(n = 1000) {
  ambient::long_grid(
    x = seq(0, 1, length.out = n),
    y = seq(0, 1, length.out = n)
  )
}

new_grid()

# A tibble: 1,000,000 × 2
       x       y
   <dbl>   <dbl>
 1     0 0      
 2     0 0.00100
 3     0 0.00200
 4     0 0.00300
 5     0 0.00400
 6     0 0.00501
 7     0 0.00601
 8     0 0.00701
 9     0 0.00801
10     0 0.00901
# … with 999,990 more rows
…
The particular choices I’ve made here came about from trial and error. I played around with a lot of different settings when creating generative art in this style, and these were things I liked. I’m not going to dive into the details here: you can find out more by reading the tutorial on spatial noise art I linked to earlier. For the current post, all I want to highlight is that we can use this function to add a new column to the canvas that defines our artwork:

canvas <- new_grid() |> 
  dplyr::mutate(paint = generate_simplex(x, y, seed = seed))

canvas

# A tibble: 1,000,000 × 3
       x       y paint
   <dbl>   <dbl> <dbl>
 1     0 0       -3.96
 2     0 0.00100 -3.95
 3     0 0.00200 -3.95
 4     0 0.00300 -3.94
 5     0 0.00400 -3.93
 6     0 0.00501 -3.92
 7     0 0.00601 -3.91
 8     0 0.00701 -3.91
 9     0 0.00801 -3.90
10     0 0.00901 -3.89
# … with 999,990 more rows
…
The code here is slightly unpleasant, yes, but I’ll do it in a slightly cleaner way in a moment. What matters right now is the fact that the coords data frame is a transformed version of the grid data. The original (x,y) coordinates in the base space have been transformed to some (x,y) coordinates in some new space.

A slightly cleaner way of doing this – keeping both the original coordinates and the transformed values – would be as follows:

canvas <- grid |>
  dplyr::mutate(
    curl_x = coords$x,
    curl_y = coords$y
  )

canvas

# A tibble: 1,000,000 × 4
       x       y      curl_x curl_y
   <dbl>   <dbl>       <dbl>  <dbl>
 1     0 0       0.000000142   2.62
 2     0 0.00100 0.0000428     2.62
 3     0 0.00200 0.000171      2.62
 4     0 0.00300 0.000384      2.62
 5     0 0.00400 0.000682      2.62
 6     0 0.00501 0.00107       2.62
 7     0 0.00601 0.00153       2.62
 8     0 0.00701 0.00209       2.62
 9     0 0.00801 0.00273       2.62
10     0 0.00901 0.00345       2.62
# … with 999,990 more rows
…
Our noise operations will be specified on this transformed/embedded manifold, but – to reveal the ending slightly too soon – the final image will be defined on the base space. The code below shows how to apply the noise operations in the embedding space:

canvas <- canvas |>
  dplyr::mutate(
    height = generate_fancy_noise(curl_x, curl_y, seed = seed),
    islands = dplyr::if_else(
      condition = height < median(height),
      true = median(height),
      false = height
    )
  )

canvas

# A tibble: 1,000,000 × 6
       x       y      curl_x curl_y height islands
   <dbl>   <dbl>       <dbl>  <dbl>  <dbl>   <dbl>
 1     0 0       0.000000142   2.62 -0.676  -0.676
 2     0 0.00100 0.0000428     2.62 -0.675  -0.675
 3     0 0.00200 0.000171      2.62 -0.674  -0.674
 4     0 0.00300 0.000384      2.62 -0.672  -0.672
 5     0 0.00400 0.000682      2.62 -0.670  -0.670
 6     0 0.00501 0.00107       2.62 -0.667  -0.667
 7     0 0.00601 0.00153       2.62 -0.664  -0.664
 8     0 0.00701 0.00209       2.62 -0.662  -0.662
 9     0 0.00801 0.00273       2.62 -0.660  -0.660
10     0 0.00901 0.00345       2.62 -0.658  -0.658
# … with 999,990 more rows
…
canvas

# A tibble: 1,000,000 × 6
       x       y curl_x curl_y height islands
   <dbl>   <dbl>  <dbl>  <dbl>  <dbl>   <dbl>
 1     0 0         0.32      1   0.72    0.72
 2     0 0.00100   0.32      1   0.72    0.72
 3     0 0.00200   0.32      1   0.72    0.72
 4     0 0.00300   0.32      1   0.72    0.72
 5     0 0.00400   0.32      1   0.72    0.72
 6     0 0.00501   0.32      1   0.72    0.72
 7     0 0.00601   0.32      1   0.72    0.72
 8     0 0.00701   0.32      1   0.72    0.72
 9     0 0.00801   0.32      1   0.72    0.72
10     0 0.00901   0.32      1   0.72    0.72
# … with 999,990 more rows
…
