Notes from a data witch - Visualising the hits of Queen Britney
…
Rows: 327895 Columns: 10
── Column specification ────────────────────────────────────────────────────────
Delimiter: ","
chr (5): url, week_id, song, performer, song_id
dbl (5): week_position, instance, previous_week_position, peak_position, wee...

ℹ Use `spec()` to retrieve the full column specification for this data.
ℹ Specify the column types or set `show_col_types = FALSE` to quiet this message.

The billboard data is a nice, rectangular data set. Every row refers to a specific song on a specific date, and tells you its position in the charts on that date. We can type print(billboard) to take a look at the first few rows and columns. In most situations (not all), you can print something out just by typing its name:

billboard

# A tibble: 327,895 × 10
   url                    week_id week_position song  performer song_id instance
   <chr>                  <chr>           <dbl> <chr> <chr>     <chr>      <dbl>
 1 http://www.billboard.… 7/17/1…            34 Don'… Patty Du… Don't …        1
 2 http://www.billboard.… 7/24/1…            22 Don'… Patty Du… Don't …        1
 3 http://www.billboard.… 7/31/1…            14 Don'… Patty Du… Don't …        1
 4 http://www.billboard.… 8/7/19…            10 Don'… Patty Du… Don't …        1
 5 http://www.billboard.… 8/14/1…             8 Don'… Patty Du… Don't …        1
 6 http://www.billboard.… 8/21/1…             8 Don'… Patty Du… Don't …        1
 7 http://www.billboard.… 8/28/1…            14 Don'… Patty Du… Don't …        1
 8 http://www.billboard.… 9/4/19…            36 Don'… Patty Du… Don't …        1
 9 http://www.billboard.… 4/19/1…            97 Don'… Teddy Pe… Don't …        1
10 http://www.billboard.… 4/26/1…            90 Don'… Teddy Pe… Don't …        1
# ℹ 327,885 more rows
# ℹ 3 more variables: previous_week_position <dbl>, peak_position <dbl>,
#   weeks_on_chart <dbl>
…
