Notes from a data witch - Pharmacometric simulation with rxode2
…
Now that we have specified all the dosing events, we need to add the “observation” events. In a real study, observation times would be the times at which we take a real-world measurement of some kind, but in the context of the simulation it’s just a set of times at which the state of the system is computed. Let’s compute the state of the system for the first 300 hours:

events <- events |> et(time = 0:300)
events 

── EventTable with 303 records ──
2 dosing records (see x$get.dosing(); add with add.dosing or et)
301 observation times (see x$get.sampling(); add with add.sampling or et)
multiple doses in `addl` columns, expand with x$expand(); or etExpand(x)
── First part of x: ──
# A tibble: 303 × 6
    time cmt     amt    ii  addl evid         
   <dbl> <chr> <dbl> <dbl> <int> <evid>       
 1     0 (obs)    NA    NA    NA 0:Observation
 2     0 depot 10000    12     9 1:Dose (Add) 
 3     1 (obs)    NA    NA    NA 0:Observation
 4     2 (obs)    NA    NA    NA 0:Observation
 5     3 (obs)    NA    NA    NA 0:Observation
 6     4 (obs)    NA    NA    NA 0:Observation
 7     5 (obs)    NA    NA    NA 0:Observation
 8     6 (obs)    NA    NA    NA 0:Observation
 9     7 (obs)    NA    NA    NA 0:Observation
10     8 (obs)    NA    NA    NA 0:Observation
# ℹ 293 more rows
…
out <- solve(mod, params, events)

When we print out, we get a fairly detailed description of the simulation that includes information about the parameters and the initial state:

out

── Solved rxode2 object ──
── Parameters (x$params): ──
     VC      VP      KA       Q      CL 
 40.200 297.000   0.294  10.500  18.600 
── Initial Conditions (x$inits): ──
     depot    central peripheral        auc 
         0          0          0          0 
── First part of data (object): ──
# A tibble: 301 × 7
   time    CP    PP  depot central peripheral   auc
  <dbl> <dbl> <dbl>  <dbl>   <dbl>      <dbl> <dbl>
1     0   0   0     10000       0          0    0  
2     1  44.4 0.920  7453.   1784.       273.  26.4
3     2  54.9 2.67   5554.   2206.       794.  77.7
4     3  51.9 4.46   4140.   2087.      1324. 132. 
5     4  44.5 5.98   3085.   1789.      1776. 180. 
6     5  36.5 7.18   2299.   1467.      2132. 221. 
# ℹ 295 more rows
…
