Notes from a data witch - Population pharmacokinetic models
…
The Population Approach Group of Australia and New Zealand host some useful resources for folks interested in pharmacometric modelling. Specifically they have a series of workshops are pretty handy. There’s a beginner workshop in 2019 that covers the core approach, and then two intermediate workshops in 2021 and 2022. I’ll work through the 2019 workshop materials in this blog post, translating the code from NONMEM to Stan and R as needed.

Lecture 1: Introduction to the topic

Lecture 2: Hands-on exercises

Parsing the warfarin data

Load the data. The csv file uses "." to specify missing values, which I’ll need to state explicitly when reading the data into R, thereby ensuring numeric variables end up as numeric:

warfpk <- readr::read_csv("warfpk.csv", na = ".", show_col_types = FALSE)
warfpk

# A tibble: 289 × 10
   `#ID`  time    wt   age   sex   amt  rate  dvid    dv   mdv
   <chr> <dbl> <dbl> <dbl> <dbl> <dbl> <dbl> <dbl> <dbl> <dbl>
 1 0       0    66.7    50     1   100    -2     0  NA       1
 2 0       0.5  66.7    50     1    NA    NA     1   0       0
 3 0       1    66.7    50     1    NA    NA     1   1.9     0
 4 0       2    66.7    50     1    NA    NA     1   3.3     0
 5 0       3    66.7    50     1    NA    NA     1   6.6     0
 6 0       6    66.7    50     1    NA    NA     1   9.1     0
 7 0       9    66.7    50     1    NA    NA     1  10.8     0
 8 0      12    66.7    50     1    NA    NA     1   8.6     0
 9 0      24    66.7    50     1    NA    NA     1   5.6     0
10 0      36    66.7    50     1    NA    NA     1   4       0
# ℹ 279 more rows

The first column name is a little awkward for R, and ordinarily I’d use janitor::clean_names() to tidy them, but in this case it’s just one column to rename so I’ll use dplyr:

warfpk <- warfpk |> dplyr::rename(id = `#ID`)
warfpk

# A tibble: 289 × 10
   id     time    wt   age   sex   amt  rate  dvid    dv   mdv
   <chr> <dbl> <dbl> <dbl> <dbl> <dbl> <dbl> <dbl> <dbl> <dbl>
 1 0       0    66.7    50     1   100    -2     0  NA       1
 2 0       0.5  66.7    50     1    NA    NA     1   0       0
 3 0       1    66.7    50     1    NA    NA     1   1.9     0
 4 0       2    66.7    50     1    NA    NA     1   3.3     0
 5 0       3    66.7    50     1    NA    NA     1   6.6     0
 6 0       6    66.7    50     1    NA    NA     1   9.1     0
 7 0       9    66.7    50     1    NA    NA     1  10.8     0
 8 0      12    66.7    50     1    NA    NA     1   8.6     0
 9 0      24    66.7    50     1    NA    NA     1   5.6     0
10 0      36    66.7    50     1    NA    NA     1   4       0
# ℹ 279 more rows
…
Ah. Okay, that’s an easy fix:

warfpk <- warfpk |> 
  dplyr::mutate(
    id = id |> 
      stringr::str_remove_all("#") |> 
      as.numeric()
  )
warfpk

# A tibble: 289 × 10
      id  time    wt   age   sex   amt  rate  dvid    dv   mdv
   <dbl> <dbl> <dbl> <dbl> <dbl> <dbl> <dbl> <dbl> <dbl> <dbl>
 1     0   0    66.7    50     1   100    -2     0  NA       1
 2     0   0.5  66.7    50     1    NA    NA     1   0       0
 3     0   1    66.7    50     1    NA    NA     1   1.9     0
 4     0   2    66.7    50     1    NA    NA     1   3.3     0
 5     0   3    66.7    50     1    NA    NA     1   6.6     0
 6     0   6    66.7    50     1    NA    NA     1   9.1     0
 7     0   9    66.7    50     1    NA    NA     1  10.8     0
 8     0  12    66.7    50     1    NA    NA     1   8.6     0
 9     0  24    66.7    50     1    NA    NA     1   5.6     0
10     0  36    66.7    50     1    NA    NA     1   4       0
# ℹ 279 more rows
…
amt: Dose administered to this person at this time point (in milligrams)

rate: Uncertain what this refers to, but it has value -2 when drug is administered and missing otherwise

dvid: Appears to be a dummy variable indicating whether the dependent variable was measured at this time point (0 = false, 1 = true)

dv: Measured value of the dependent variable (plasma warfarin concentration, in mg/L)

mdv: Appears to be a dummy variable that is the reverse of dvid, and is presumably an indicator variable whose meaning is “missing dependent variable” (0 = false, 1 = true)

We can see the dosing information by filtering the data on dvid:

warfpk |> dplyr::filter(dvid == 0)

# A tibble: 32 × 10
      id  time    wt   age   sex   amt  rate  dvid    dv   mdv
   <dbl> <dbl> <dbl> <dbl> <dbl> <dbl> <dbl> <dbl> <dbl> <dbl>
 1     0     0  66.7    50     1   100    -2     0    NA     1
 2     1     0  66.7    50     1   100    -2     0    NA     1
 3     2     0  66.7    31     1   100    -2     0    NA     1
 4     3     0  80      40     1   120    -2     0    NA     1
 5     4     0  40      46     0    60    -2     0    NA     1
 6     5     0  75.3    43     1   113    -2     0    NA     1
 7     6     0  60      36     0    90    -2     0    NA     1
 8     7     0  90      41     1   135    -2     0    NA     1
 9     8     0  50      27     0    75    -2     0    NA     1
10     9     0  70      28     1   105    -2     0    NA     1
# ℹ 22 more rows
…
