Notes from a data witch - Unpredictable paintings
…
Do something, anything

Truth be told, I almost never have a plan when I start building a new system. What I do is start playing with pictures that visualise random data in some fashion, and see where that takes me. So, okay… I’ll start out creating a data frame that contains random numbers: each row in the data frame is a single “point”, and each column specifies an attribute: an x variable specifying a horizontal co-ordinate, a y variable specifying the vertical location, and a g variable that randomly assigns each of point to a “group” of some kind. At this point in time I have no idea how I’m going to use this information:

library(tidyverse)
set.seed(1)
obj <- tibble(
  x = rnorm(100), 
  y = rnorm(100), 
  g = sample(10, 100, TRUE)
)
obj

# A tibble: 100 × 3
        x       y     g
    <dbl>   <dbl> <int>
 1 -0.626 -0.620      1
 2  0.184  0.0421     3
 3 -0.836 -0.911     10
 4  1.60   0.158      7
 5  0.330 -0.655      4
 6 -0.820  1.77       1
 7  0.487  0.717      9
 8  0.738  0.910      7
 9  0.576  0.384      6
10 -0.305  1.68       4
# ℹ 90 more rows
…
This is definitely neat. I do like the “jagged little polygons” feel to this, but to be honest I’m getting a bit bored. I’ve done a few different art pieces that exploit this effect before, and this isn’t the most exciting thing for me, so I want to push things in a different direction. Speaking of which, I’m not sure I want all the polygons to lie on top of each other so much, so what I’ll do is create a small tibble called grp that specifies a random “offset” or “shift” for each group, and then using full_join() from dplyr to merge it into the data object:

grp <- tibble(
  g = 1:10,
  x_shift = rnorm(10),
  y_shift = rnorm(10)
)
obj <- full_join(obj, grp)
obj

# A tibble: 100 × 5
        x       y     g x_shift y_shift
    <dbl>   <dbl> <int>   <dbl>   <dbl>
 1 -0.626 -0.620      1   1.13   -1.00 
 2  0.184  0.0421     3   0.741   0.945
 3 -0.836 -0.911     10  -0.581   1.78 
 4  1.60   0.158      7  -0.408   0.376
 5  0.330 -0.655      4  -1.32    0.434
 6 -0.820  1.77       1   1.13   -1.00 
 7  0.487  0.717      9  -0.701  -1.43 
 8  0.738  0.910      7  -0.408   0.376
 9  0.576  0.384      6   0.398  -0.390
10 -0.305  1.68       4  -1.32    0.434
# ℹ 90 more rows
…
The code here is very ugly because I wrote it in a rush. The gist of it is that what you want to do normally is feed a data frame to the ETSP() function, which creates the data structure needed to solve the corresponding optimisation problem. The output is then passed to solve_TSP() which can produce an approximate solution via one of many different algorithms, and that then returns a data structure (as an S3 object) that specifies the order in which the points need to be connected, along with some handy metadata (e.g., the length of the tour). But I don’t want any of that information, so I use c() and unname() to strip all that information out, append the resulting information to the data object, and then use the arrange() function from the dplyr package to order the data in the desired fashion.

Next, because I want to apply the tour() function separately to each group rather than to compute a TSP solution for the overall data structure, I use group_split() to split the data set into a list of data frames, one for each group, and then map_dfr() to apply the tour() function to each element of that list and bind the results together into a data frame:

obj <- obj %>%
  group_split(g) %>%
  map_dfr(~tour(.x))
obj

# A tibble: 100 × 6
         x      y     g x_shift y_shift  tour
     <dbl>  <dbl> <int>   <dbl>   <dbl> <int>
 1 -0.626  -0.620     1    1.13   -1.00     1
 2 -0.165  -1.91      1    1.13   -1.00     9
 3  0.267  -0.926     1    1.13   -1.00     3
 4 -0.103  -0.589     1    1.13   -1.00     8
 5  0.370  -0.430     1    1.13   -1.00     4
 6  0.557  -0.464     1    1.13   -1.00     5
 7  2.17    0.208     1    1.13   -1.00     2
 8  0.821   0.494     1    1.13   -1.00    10
 9 -0.820   1.77      1    1.13   -1.00     7
10 -0.0162 -0.320     1    1.13   -1.00     6
# ℹ 90 more rows
…
