Notes from a data witch - Pharmacokinetic ODE models in Stan
…
Chain 1 finished in 0.0 seconds.
Chain 2 finished in 0.0 seconds.
Chain 3 finished in 0.0 seconds.
Chain 4 finished in 0.0 seconds.

All 4 chains finished successfully.
Mean chain execution time: 0.0 seconds.
Total execution time: 0.5 seconds.

This is a CmdStanGQ object, and again it has $draws() and $summary() methods. For our purposes the $summary() method will suffice as it returns a tibble containing the thing I want to plot:

bolus2_summary <- bolus2_generated$summary()
bolus2_summary

# A tibble: 61 × 7
   variable   mean median    sd   mad    q5   q95
   <chr>     <num>  <num> <num> <num> <num> <num>
 1 c_fit[1]   9.97   9.99 0.804 0.684  8.64 11.3 
 2 c_fit[2]   8.98   9.01 0.648 0.560  7.88  9.97
 3 c_fit[3]   8.09   8.13 0.551 0.473  7.14  8.89
 4 c_fit[4]   7.29   7.34 0.500 0.404  6.46  7.99
 5 c_fit[5]   6.57   6.62 0.480 0.363  5.79  7.22
 6 c_fit[6]   5.93   5.98 0.478 0.345  5.14  6.55
 7 c_fit[7]   5.35   5.40 0.482 0.351  4.56  5.98
 8 c_fit[8]   4.83   4.88 0.488 0.361  4.01  5.48
 9 c_fit[9]   4.36   4.41 0.493 0.370  3.52  5.02
10 c_fit[10]  3.94   3.98 0.494 0.378  3.10  4.61
# ℹ 51 more rows

The variable column here is only mildly helpful, so I’ll add a column specifying the actual times associated with each row in this tibble:

bolus2_summary$time <- bolus2_data$t_fit
bolus2_summary

# A tibble: 61 × 8
   variable   mean median    sd   mad    q5   q95  time
   <chr>     <num>  <num> <num> <num> <num> <num> <num>
 1 c_fit[1]   9.97   9.99 0.804 0.684  8.64 11.3   0   
 2 c_fit[2]   8.98   9.01 0.648 0.560  7.88  9.97  0.05
 3 c_fit[3]   8.09   8.13 0.551 0.473  7.14  8.89  0.1 
 4 c_fit[4]   7.29   7.34 0.500 0.404  6.46  7.99  0.15
 5 c_fit[5]   6.57   6.62 0.480 0.363  5.79  7.22  0.2 
 6 c_fit[6]   5.93   5.98 0.478 0.345  5.14  6.55  0.25
 7 c_fit[7]   5.35   5.40 0.482 0.351  4.56  5.98  0.3 
 8 c_fit[8]   4.83   4.88 0.488 0.361  4.01  5.48  0.35
 9 c_fit[9]   4.36   4.41 0.493 0.370  3.52  5.02  0.4 
10 c_fit[10]  3.94   3.98 0.494 0.378  3.10  4.61  0.45
# ℹ 51 more rows
…
mmk_draws <- mmk_fitted$draws(format = "draws_df")
mmk_draws <- mmk_draws |>
  tidyr::pivot_longer(
    cols = tidyr::starts_with("conc"), 
    names_to = "variable", 
    values_to = "conc"
  ) |>
  dplyr::mutate(time = mmk_data$ts)

Warning: Dropping 'draws_df' class as required metadata was removed.

mmk_draws

# A tibble: 160 × 6
   .chain .iteration .draw variable    conc  time
    <int>      <int> <int> <chr>      <dbl> <dbl>
 1      1          1     1 conc[1,1]   21.5  0.05
 2      1          1     1 conc[2,1]   21.1  0.1 
 3      1          1     1 conc[3,1]   20.8  0.15
 4      1          1     1 conc[4,1]   20.5  0.2 
 5      1          1     1 conc[5,1]   20.1  0.25
 6      1          1     1 conc[6,1]   19.8  0.3 
 7      1          1     1 conc[7,1]   19.5  0.35
 8      1          1     1 conc[8,1]   19.1  0.4 
 9      1          1     1 conc[9,1]   18.8  0.45
10      1          1     1 conc[10,1]  18.5  0.5 
# ℹ 150 more rows
…
All 4 chains finished successfully.
Mean chain execution time: 1.1 seconds.
Total execution time: 2.3 seconds.

Warning: 2 of 4000 (0.0%) transitions ended with a divergence.
See https://mc-stan.org/misc/warnings for details.

That looks nice. A couple of minor complaints from Stan about divergences, but nothing too serious.17 And take a summary:

mmk_bolus_fitted$summary()

# A tibble: 168 × 10
   variable     mean median    sd   mad     q5   q95  rhat ess_bulk ess_tail
   <chr>       <num>  <num> <num> <num>  <num> <num> <num>    <num>    <num>
 1 lp__        3.82   4.20  1.73  1.49   0.506  5.86  1.00    1091.    1561.
 2 sigma       0.717  0.673 0.247 0.216  0.416  1.18  1.00    1109.    1491.
 3 v0          6.10   5.89  1.03  0.864  4.80   8.06  1.00     814.    1252.
 4 km          3.80   2.79  3.34  2.19   0.586 10.6   1.00     906.    1442.
 5 vol_d_true  5.67   5.69  0.350 0.329  5.08   6.22  1.00     924.    1398.
 6 c0[1]      21.2   21.1   1.34  1.21  19.3   23.6   1.00     924.    1398.
 7 vm          7.27   6.69  2.16  1.47   5.00  11.5   1.00     817.    1207.
 8 c_fit[1,1] 20.9   20.8   1.30  1.17  19.0   23.2   1.00     934.    1413.
 9 c_fit[2,1] 20.6   20.5   1.25  1.13  18.8   22.8   1.00     946.    1418.
10 c_fit[3,1] 20.3   20.2   1.21  1.10  18.5   22.5   1.00     958.    1423.
# ℹ 158 more rows
…
All 4 chains finished successfully.
Mean chain execution time: 0.0 seconds.
Total execution time: 1.1 seconds.

mmk_bolus_generated_summary <- mmk_bolus_generated$summary() |>
  dplyr::filter(variable |> stringr::str_detect("^c_fit"))
mmk_bolus_generated_summary$time <- mmk_bolus_data$t_fit

mmk_bolus_generated_summary

# A tibble: 160 × 8
   variable     mean median    sd   mad    q5   q95  time
   <chr>       <num>  <num> <num> <num> <num> <num> <num>
 1 c_fit[1,1]   20.9   20.8 1.30  1.17   19.0  23.2  0.05
 2 c_fit[2,1]   20.6   20.5 1.25  1.13   18.8  22.8  0.1 
 3 c_fit[3,1]   20.3   20.2 1.21  1.10   18.5  22.5  0.15
 4 c_fit[4,1]   20.0   19.9 1.17  1.07   18.3  22.1  0.2 
 5 c_fit[5,1]   19.7   19.6 1.13  1.04   18.0  21.7  0.25
 6 c_fit[6,1]   19.4   19.3 1.08  0.997  17.8  21.3  0.3 
 7 c_fit[7,1]   19.1   19.0 1.04  0.961  17.5  20.9  0.35
 8 c_fit[8,1]   18.8   18.7 1.01  0.928  17.3  20.6  0.4 
 9 c_fit[9,1]   18.5   18.5 0.968 0.898  17.1  20.2  0.45
10 c_fit[10,1]  18.2   18.2 0.932 0.869  16.8  19.8  0.5 
# ℹ 150 more rows
…
All 4 chains finished successfully.
Mean chain execution time: 11.5 seconds.
Total execution time: 39.8 seconds.

That’s a little time consuming and makes me suspect that I’ve implemented this poorly.21 Oh well. Perhaps I’ll revisit later. The important thing is that it sorta works. So let’s move on and take a summary:

two_cpt_fitted$summary()

# A tibble: 491 × 10
   variable      mean  median      sd     mad      q5     q95  rhat ess_bulk
   <chr>        <num>   <num>   <num>   <num>   <num>   <num> <num>    <num>
 1 lp__       -59.1   -59.1    2.43    2.55   -63.2   -55.5    1.34     9.69
 2 qe           2.19    2.31   0.385   0.468    1.61    2.64   1.73     6.13
 3 qi          15.2     3.58  16.9     4.54     0.775  46.1    1.74     6.16
 4 vc          17.7    17.4    2.88    3.39    13.3    22.3    1.42     8.27
 5 vp          32.7    11.7   40.3     9.91     5.46  108.     1.73     6.17
 6 ka           0.431   0.436  0.0616  0.0594   0.324   0.529  1.25    12.1 
 7 sigma        1.20    1.17   0.238   0.225    0.878   1.64   1.10    25.6 
 8 amount[1,… 648.    644.    40.4    38.4    586.    721.     1.25    12.1 
 9 amount[2,… 423.    417.    52.8    49.1    346.    522.     1.25    12.1 
10 amount[3,… 278.    269.    52.2    47.7    204.    377.     1.25    12.1 
# ℹ 481 more rows
# ℹ 1 more variable: ess_tail <num>
…
All 4 chains finished successfully.
Mean chain execution time: 0.0 seconds.
Total execution time: 1.7 seconds.

two_cpt_generated_summary <- two_cpt_generated$summary() |>
  dplyr::filter(variable |> stringr::str_detect("^c_fit"))

two_cpt_generated_summary$time <- two_cpt_data$t_fit
two_cpt_generated_summary

# A tibble: 101 × 8
   variable    mean median     sd    mad     q5    q95  time
   <chr>      <num>  <num>  <num>  <num>  <num>  <num> <num>
 1 c_fit[1]   0.249  0.229 0.0549 0.0563  0.188  0.342   0  
 2 c_fit[2]   4.54   4.35  0.657  0.721   3.74   5.66    0.2
 3 c_fit[3]   8.01   7.81  0.835  0.905   6.94   9.48    0.4
 4 c_fit[4]  11.0   10.8   0.873  0.918   9.81  12.6     0.6
 5 c_fit[5]  13.6   13.5   0.859  0.873  12.4   15.1     0.8
 6 c_fit[6]  15.9   15.8   0.827  0.817  14.7   17.3     1  
 7 c_fit[7]  17.8   17.8   0.790  0.769  16.7   19.2     1.2
 8 c_fit[8]  19.6   19.5   0.754  0.721  18.4   20.9     1.4
 9 c_fit[9]  21.1   21.1   0.721  0.681  20.0   22.3     1.6
10 c_fit[10] 22.4   22.4   0.692  0.657  21.3   23.6     1.8
# ℹ 91 more rows
…
