Notes from a data witch - Crayola crayon colours
…
{html_node}
<table class="wikitable sortable">
[1] <caption>\n</caption>
[2] <tbody>\n<tr>\n<th width="10%" class="sortable">Color\n</th>\n<th width=" ...

At this point we can visually inspect to see if it looks right. It mostly does but… uh… the colors haven’t appeared, only those that had a listing on the web:

crayola <- raw |>
  purrr::pluck(1) |>
  rvest::html_table()

crayola

# A tibble: 168 × 9
   Color Name              Hexad…¹ Years…² Notes 16-Bo…³ 24-Bo…⁴ 32-Bo…⁵ 64-Bo…⁶
   <lgl> <chr>             <chr>   <chr>   <chr> <chr>   <chr>   <chr>   <chr>  
 1 NA    Red               "#ED0A… 1903–p… ""    "Yes"   "Yes"   "Yes"   "Yes"  
 2 NA    Maroon            "#C321… 1949–p… "Kno… "No"    "No"    "No"    "No"   
 3 NA    Scarlet           "#FD0E… 1998–p… "Kno… "No"    "Yes"   "Yes"   "Yes"  
 4 NA    Brick Red         "#C62D… 1958–p… ""    "No"    "No"    "No"    "Yes"  
 5 NA    English Vermilion ""      1903–1… "Als… ""      ""      ""      ""     
 6 NA    Madder Lake       ""      1903–1… ""    ""      ""      ""      ""     
 7 NA    Permanent Gerani… ""      1903–c… ""    ""      ""      ""      ""     
 8 NA    Maximum Red       ""      1926–1… "Par… ""      ""      ""      ""     
 9 NA    Chestnut          "#B94E… 1903–p… "Kno… "No"    "No"    "Yes"   "Yes"  
10 NA    Orange-Red        "#FF53… 1958–1… ""    ""      ""      ""      ""     
# … with 158 more rows, and abbreviated variable names
#   ¹​`Hexadecimal in their website depiction[b]`, ²​`Years in production[2]`,
#   ³​`16-Box`, ⁴​`24-Box`, ⁵​`32-Box`, ⁶​`64-Box`

Act I: It’s like a hanky code

Look, that’s not a big deal right? Not having any colours for a post about colours? Let’s set that aside and focus on the important things. Clean names:

crayola <- crayola |>
  janitor::clean_names() |>
  dplyr::rename(
    listed = hexadecimal_in_their_website_depiction_b,
    years = years_in_production_2
  )

crayola

# A tibble: 168 × 9
   color name                 listed years notes x16_box x24_box x32_box x64_box
   <lgl> <chr>                <chr>  <chr> <chr> <chr>   <chr>   <chr>   <chr>  
 1 NA    Red                  "#ED0… 1903… ""    "Yes"   "Yes"   "Yes"   "Yes"  
 2 NA    Maroon               "#C32… 1949… "Kno… "No"    "No"    "No"    "No"   
 3 NA    Scarlet              "#FD0… 1998… "Kno… "No"    "Yes"   "Yes"   "Yes"  
 4 NA    Brick Red            "#C62… 1958… ""    "No"    "No"    "No"    "Yes"  
 5 NA    English Vermilion    ""     1903… "Als… ""      ""      ""      ""     
 6 NA    Madder Lake          ""     1903… ""    ""      ""      ""      ""     
 7 NA    Permanent Geranium … ""     1903… ""    ""      ""      ""      ""     
 8 NA    Maximum Red          ""     1926… "Par… ""      ""      ""      ""     
 9 NA    Chestnut             "#B94… 1903… "Kno… "No"    "No"    "Yes"   "Yes"  
10 NA    Orange-Red           "#FF5… 1958… ""    ""      ""      ""      ""     
# … with 158 more rows
…
Yay, those look like hex colours. Most importantly I’ve taken steps to ensure they’ve been extracted in the correct order so it’s easy to insert them where they should have been in the first place:

crayola$color <- background
crayola

# A tibble: 168 × 9
   color   name               listed years notes x16_box x24_box x32_box x64_box
   <chr>   <chr>              <chr>  <chr> <chr> <chr>   <chr>   <chr>   <chr>  
 1 #ED0A3F Red                "#ED0… 1903… ""    "Yes"   "Yes"   "Yes"   "Yes"  
 2 #C32148 Maroon             "#C32… 1949… "Kno… "No"    "No"    "No"    "No"   
 3 #FD0E35 Scarlet            "#FD0… 1998… "Kno… "No"    "Yes"   "Yes"   "Yes"  
 4 #C62D42 Brick Red          "#C62… 1958… ""    "No"    "No"    "No"    "Yes"  
 5 #CC474B English Vermilion  ""     1903… "Als… ""      ""      ""      ""     
 6 #CC3336 Madder Lake        ""     1903… ""    ""      ""      ""      ""     
 7 #E12C2C Permanent Geraniu… ""     1903… ""    ""      ""      ""      ""     
 8 #D92121 Maximum Red        ""     1926… "Par… ""      ""      ""      ""     
 9 #B94E48 Chestnut           "#B94… 1903… "Kno… "No"    "No"    "Yes"   "Yes"  
10 #FF5349 Orange-Red         "#FF5… 1958… ""    ""      ""      ""      ""     
# … with 158 more rows
…
  # if only a single year was given use it for the year end and the year start,
  # and coerce strings to integers as appropriate
  dplyr::mutate(
    id = dplyr::row_number(),
    year_ended = dplyr::if_else(is.na(year_ended), year_started, year_ended),
    interval = as.integer(interval),
    year_started = as.integer(year_started),
    year_ended = as.integer(year_ended)
  )

crayola

# A tibble: 174 × 12
   color   name     listed notes x16_box x24_box x32_box x64_box inter…¹ year_…²
   <chr>   <chr>    <chr>  <chr> <chr>   <chr>   <chr>   <chr>     <int>   <int>
 1 #ED0A3F Red      "#ED0… ""    "Yes"   "Yes"   "Yes"   "Yes"         1    1903
 2 #C32148 Maroon   "#C32… "Kno… "No"    "No"    "No"    "No"          1    1949
 3 #FD0E35 Scarlet  "#FD0… "Kno… "No"    "Yes"   "Yes"   "Yes"         1    1998
 4 #C62D42 Brick R… "#C62… ""    "No"    "No"    "No"    "Yes"         1    1958
 5 #CC474B English… ""     "Als… ""      ""      ""      ""            1    1903
 6 #CC3336 Madder … ""     ""    ""      ""      ""      ""            1    1903
 7 #E12C2C Permane… ""     ""    ""      ""      ""      ""            1    1903
 8 #D92121 Maximum… ""     "Par… ""      ""      ""      ""            1    1926
 9 #B94E48 Chestnut "#B94… "Kno… "No"    "No"    "Yes"   "Yes"         1    1903
10 #FF5349 Orange-… "#FF5… ""    ""      ""      ""      ""            1    1958
# … with 164 more rows, 2 more variables: year_ended <int>, id <int>, and
#   abbreviated variable names ¹​interval, ²​year_started
…
